# Blender v2.78 (sub 0) OBJ File: ''
# www.blender.org
mtllib gater1.mtl
o chaos_gate_inner_ring
v 0.537166 0.355478 0.458575
v 0.493535 0.355478 0.414973
v 0.493535 0.409906 0.344973
v 0.607138 0.409906 0.458575
v 0.379931 0.409906 0.458575
v 0.449903 0.355478 0.458575
v 0.493535 0.507327 0.458575
v 0.493535 0.355478 0.502169
v 0.537166 0.355478 0.458575
v 0.607138 0.409906 0.458575
v 0.493535 0.409906 0.572169
v 0.493535 0.507327 0.458575
v 0.449903 0.355478 0.458575
v 0.493535 0.355478 0.502169
v 0.493535 0.409906 0.572169
v 0.379931 0.409906 0.458575
v 0.493535 0.507327 0.458575
v 0.636165 0.277235 0.458575
v 0.493535 0.005683 0.458575
v 0.493535 0.277235 0.315974
v 0.493535 0.355478 0.414973
v 0.537166 0.355478 0.458575
v 0.449903 0.355478 0.458575
v 0.350905 0.277235 0.458575
v 0.493535 0.005683 0.458575
v 0.493535 0.277235 0.601176
v 0.493535 0.005683 0.458575
v 0.636165 0.277235 0.458575
v 0.537166 0.355478 0.458575
v 0.493535 0.355478 0.502169
v 0.350905 0.277235 0.458575
v 0.493535 0.005683 0.458575
v 0.493535 0.277235 0.601176
v 0.493535 0.355478 0.502169
v 0.449903 0.355478 0.458575
v 0.449903 3.756640 0.458575
v 0.493535 3.756640 0.414973
v 0.493535 3.702212 0.344974
v 0.379931 3.702212 0.458575
v 0.607138 3.702212 0.458575
v 0.537166 3.756640 0.458575
v 0.493535 3.604791 0.458575
v 0.493535 3.756640 0.502170
v 0.449903 3.756640 0.458575
v 0.379931 3.702212 0.458575
v 0.493535 3.702212 0.572169
v 0.493535 3.604791 0.458575
v 0.537166 3.756640 0.458575
v 0.493535 3.756640 0.502170
v 0.493535 3.702212 0.572169
v 0.607138 3.702212 0.458575
v 0.493535 3.604791 0.458575
v 0.350904 3.834884 0.458575
v 0.493535 4.106435 0.458575
v 0.493535 3.834884 0.315974
v 0.493535 3.756640 0.414973
v 0.449903 3.756640 0.458575
v 0.537166 3.756640 0.458575
v 0.636165 3.834884 0.458575
v 0.493535 4.106435 0.458575
v 0.493535 3.834884 0.601176
v 0.493535 4.106435 0.458575
v 0.350904 3.834884 0.458575
v 0.449903 3.756640 0.458575
v 0.493535 3.756640 0.502170
v 0.636165 3.834884 0.458575
v 0.493535 4.106435 0.458575
v 0.493535 3.834884 0.601176
v 0.493535 3.756640 0.502170
v 0.537166 3.756640 0.458575
v 0.730635 0.429120 0.523570
v 0.730635 0.494120 0.458575
v 1.105872 0.577744 0.458575
v 1.130746 0.517691 0.523570
v 1.624987 0.924605 0.458575
v 1.670950 0.878643 0.523570
v 1.971850 1.443721 0.458575
v 2.031901 1.418846 0.523570
v 2.055718 1.804424 0.458575
v 2.120719 1.804424 0.523570
v 0.613030 0.391510 0.458575
v 0.730635 0.364120 0.458575
v 2.158593 1.868976 0.528575
v 2.131466 1.933528 0.458575
v 2.185718 1.804424 0.458575
v 2.202529 1.872396 0.528575
v 2.219338 1.940368 0.458575
v 2.158593 1.868976 0.388575
v 2.202529 1.872396 0.388575
v 2.185718 1.804424 0.458575
v 2.120719 1.804424 0.393573
v 2.031901 1.418846 0.393572
v 2.091954 1.393972 0.458575
v 1.670950 0.878643 0.393572
v 1.716910 0.832681 0.458575
v 1.130746 0.517691 0.393572
v 1.155620 0.457639 0.458575
v 0.730635 0.429120 0.393572
v 0.730635 0.364120 0.458575
v 2.354025 1.865238 0.458575
v 2.293751 1.826071 0.388575
v 2.131466 1.933528 0.458575
v 2.055718 1.804424 0.458575
v 2.158593 1.868976 0.388575
v 2.237944 1.788021 0.458575
v 2.202529 1.872396 0.528575
v 2.293751 1.826071 0.528575
v 0.730635 0.364120 0.458575
v 0.730635 0.429120 0.523570
v 1.130746 0.517691 0.523570
v 1.155620 0.457639 0.458575
v 1.670950 0.878643 0.523570
v 1.716910 0.832681 0.458575
v 2.031901 1.418846 0.523570
v 2.091954 1.393972 0.458575
v 2.120719 1.804424 0.523570
v 2.185718 1.804424 0.458575
v 0.730635 0.494120 0.458575
v 0.730635 0.429120 0.393572
v 1.130746 0.517691 0.393572
v 1.105872 0.577744 0.458575
v 1.670950 0.878643 0.393572
v 1.624987 0.924605 0.458575
v 2.031901 1.418846 0.393572
v 1.971850 1.443721 0.458575
v 2.120719 1.804424 0.393573
v 2.055718 1.804424 0.458575
v 0.730635 0.429120 0.393572
v 0.613030 0.391510 0.458575
v 0.730635 0.364120 0.458575
v 0.730635 0.494120 0.458575
v 0.613030 0.391510 0.458575
v 0.730635 0.429120 0.393572
v 2.202529 1.872396 0.528575
v 2.185718 1.804424 0.458575
v 2.158593 1.868976 0.528575
v 2.293751 1.826071 0.528575
v 2.202529 1.872396 0.528575
v 2.219338 1.940368 0.458575
v 2.354025 1.865238 0.458575
v 2.293751 1.826071 0.388575
v 2.202529 1.872396 0.388575
v 2.237944 1.788021 0.458575
v 2.364905 1.678817 0.458575
v 2.237944 1.788021 0.458575
v 2.293751 1.826071 0.528575
v 2.237944 1.788021 0.458575
v 2.364905 1.678817 0.458575
v 2.293751 1.826071 0.388575
v 2.293751 1.826071 0.388575
v 2.364905 1.678817 0.458575
v 2.354025 1.865238 0.458575
v 2.354025 1.865238 0.458575
v 2.364905 1.678817 0.458575
v 2.293751 1.826071 0.528575
v 0.256432 0.429120 0.523570
v -0.143678 0.517691 0.523570
v -0.118804 0.577744 0.458575
v 0.256432 0.494120 0.458575
v -0.637920 0.924605 0.458575
v -0.683881 0.878643 0.523570
v -0.984781 1.443721 0.458575
v -1.044834 1.418846 0.523570
v -1.068650 1.804424 0.458575
v -1.133650 1.804424 0.523570
v 0.374037 0.391510 0.458575
v 0.256432 0.364120 0.458575
v -1.171524 1.868976 0.528575
v -1.144400 1.933528 0.458575
v -1.198651 1.804424 0.458575
v -1.215460 1.872396 0.528575
v -1.232270 1.940368 0.458575
v -1.171524 1.868976 0.388575
v -1.215460 1.872396 0.388575
v -1.198651 1.804424 0.458575
v -1.133650 1.804424 0.393573
v -1.044834 1.418846 0.393572
v -1.104886 1.393972 0.458575
v -0.683881 0.878643 0.393572
v -0.729844 0.832681 0.458575
v -0.143678 0.517691 0.393572
v -0.168552 0.457639 0.458575
v 0.256432 0.429120 0.393572
v 0.256432 0.364120 0.458575
v -1.366958 1.865238 0.458575
v -1.306683 1.826071 0.388575
v -1.144400 1.933528 0.458575
v -1.171524 1.868976 0.388575
v -1.068650 1.804424 0.458575
v -1.250877 1.788021 0.458575
v -1.215460 1.872396 0.528575
v -1.306683 1.826071 0.528575
v -1.306683 1.826071 0.388575
v -1.250877 1.788021 0.458575
v -1.215460 1.872396 0.388575
v 0.256432 0.364120 0.458575
v -0.168552 0.457639 0.458575
v -0.143678 0.517691 0.523570
v 0.256432 0.429120 0.523570
v -0.683881 0.878643 0.523570
v -0.729844 0.832681 0.458575
v -1.044834 1.418846 0.523570
v -1.104886 1.393972 0.458575
v -1.133650 1.804424 0.523570
v -1.198651 1.804424 0.458575
v 0.256432 0.494120 0.458575
v -0.118804 0.577744 0.458575
v -0.143678 0.517691 0.393572
v 0.256432 0.429120 0.393572
v -0.683881 0.878643 0.393572
v -0.637920 0.924605 0.458575
v -1.044834 1.418846 0.393572
v -0.984781 1.443721 0.458575
v -1.133650 1.804424 0.393573
v -1.068650 1.804424 0.458575
v 0.374037 0.391510 0.458575
v 0.256432 0.429120 0.393572
v 0.256432 0.364120 0.458575
v 0.374037 0.391510 0.458575
v 0.256432 0.494120 0.458575
v 0.256432 0.429120 0.393572
v -1.198651 1.804424 0.458575
v -1.215460 1.872396 0.528575
v -1.171524 1.868976 0.528575
v -1.306683 1.826071 0.528575
v -1.366958 1.865238 0.458575
v -1.232270 1.940368 0.458575
v -1.215460 1.872396 0.528575
v -1.250877 1.788021 0.458575
v -1.377838 1.678817 0.458575
v -1.306683 1.826071 0.528575
v -1.377838 1.678817 0.458575
v -1.250877 1.788021 0.458575
v -1.306683 1.826071 0.388575
v -1.377838 1.678817 0.458575
v -1.306683 1.826071 0.388575
v -1.366958 1.865238 0.458575
v -1.377838 1.678817 0.458575
v -1.366958 1.865238 0.458575
v -1.306683 1.826071 0.528575
v 0.730635 3.682999 0.523570
v 0.730635 3.617999 0.458575
v 1.105872 3.534375 0.458575
v 1.130746 3.594427 0.523570
v 1.624987 3.187514 0.458575
v 1.670950 3.233475 0.523570
v 1.971850 2.668398 0.458575
v 2.031901 2.693273 0.523570
v 2.055718 2.307695 0.458575
v 2.120719 2.307695 0.523570
v 0.613030 3.720609 0.458575
v 0.730635 3.747999 0.458575
v 2.158593 2.243143 0.528575
v 2.131466 2.178590 0.458575
v 2.185718 2.307695 0.458575
v 2.202529 2.239722 0.528575
v 2.219338 2.171751 0.458575
v 2.158593 2.243143 0.388575
v 2.202529 2.239722 0.388575
v 2.185718 2.307695 0.458575
v 2.120719 2.307695 0.393573
v 2.031901 2.693273 0.393573
v 2.091954 2.718147 0.458575
v 1.670950 3.233475 0.393573
v 1.716910 3.279437 0.458575
v 1.130746 3.594427 0.393573
v 1.155620 3.654479 0.458575
v 0.730635 3.682999 0.393573
v 0.730635 3.747999 0.458575
v 2.354025 2.246880 0.458575
v 2.293751 2.286047 0.388575
v 2.131466 2.178590 0.458575
v 2.055718 2.307695 0.458575
v 2.158593 2.243143 0.388575
v 2.237944 2.324097 0.458575
v 2.202529 2.239722 0.528575
v 2.293751 2.286047 0.528575
v 0.730635 3.747999 0.458575
v 0.730635 3.682999 0.523570
v 1.130746 3.594427 0.523570
v 1.155620 3.654479 0.458575
v 1.670950 3.233475 0.523570
v 1.716910 3.279437 0.458575
v 2.031901 2.693273 0.523570
v 2.091954 2.718147 0.458575
v 2.120719 2.307695 0.523570
v 2.185718 2.307695 0.458575
v 0.730635 3.617999 0.458575
v 0.730635 3.682999 0.393573
v 1.130746 3.594427 0.393573
v 1.105872 3.534375 0.458575
v 1.670950 3.233475 0.393573
v 1.624987 3.187514 0.458575
v 2.031901 2.693273 0.393573
v 1.971850 2.668398 0.458575
v 2.120719 2.307695 0.393573
v 2.055718 2.307695 0.458575
v 0.730635 3.682999 0.393573
v 0.613030 3.720609 0.458575
v 0.730635 3.747999 0.458575
v 0.730635 3.617999 0.458575
v 0.613030 3.720609 0.458575
v 0.730635 3.682999 0.393573
v 2.202529 2.239722 0.528575
v 2.185718 2.307695 0.458575
v 2.158593 2.243143 0.528575
v 2.293751 2.286047 0.528575
v 2.202529 2.239722 0.528575
v 2.219338 2.171751 0.458575
v 2.354025 2.246880 0.458575
v 2.293751 2.286047 0.388575
v 2.202529 2.239722 0.388575
v 2.237944 2.324097 0.458575
v 2.364905 2.433302 0.458575
v 2.237944 2.324097 0.458575
v 2.293751 2.286047 0.528575
v 2.237944 2.324097 0.458575
v 2.364905 2.433302 0.458575
v 2.293751 2.286047 0.388575
v 2.293751 2.286047 0.388575
v 2.364905 2.433302 0.458575
v 2.354025 2.246880 0.458575
v 2.354025 2.246880 0.458575
v 2.364905 2.433302 0.458575
v 2.293751 2.286047 0.528575
v 0.256432 3.682999 0.523570
v -0.143678 3.594427 0.523570
v -0.118804 3.534375 0.458575
v 0.256432 3.617999 0.458575
v -0.637920 3.187514 0.458575
v -0.683881 3.233475 0.523570
v -0.984781 2.668398 0.458575
v -1.044834 2.693273 0.523570
v -1.068650 2.307695 0.458575
v -1.133650 2.307695 0.523570
v 0.374037 3.720609 0.458575
v 0.256432 3.747999 0.458575
v -1.171524 2.243143 0.528575
v -1.144400 2.178590 0.458575
v -1.198651 2.307695 0.458575
v -1.215460 2.239722 0.528575
v -1.232270 2.171751 0.458575
v -1.171524 2.243143 0.388575
v -1.215460 2.239722 0.388575
v -1.198651 2.307695 0.458575
v -1.133650 2.307695 0.393573
v -1.044834 2.693273 0.393573
v -1.104886 2.718147 0.458575
v -0.683881 3.233475 0.393573
v -0.729844 3.279437 0.458575
v -0.143678 3.594427 0.393573
v -0.168552 3.654479 0.458575
v 0.256432 3.682999 0.393573
v 0.256432 3.747999 0.458575
v -1.366958 2.246880 0.458575
v -1.306683 2.286047 0.388575
v -1.144400 2.178590 0.458575
v -1.171524 2.243143 0.388575
v -1.068650 2.307695 0.458575
v -1.250877 2.324097 0.458575
v -1.215460 2.239722 0.528575
v -1.306683 2.286047 0.528575
v -1.306683 2.286047 0.388575
v -1.250877 2.324097 0.458575
v -1.215460 2.239722 0.388575
v 0.256432 3.747999 0.458575
v -0.168552 3.654479 0.458575
v -0.143678 3.594427 0.523570
v 0.256432 3.682999 0.523570
v -0.683881 3.233475 0.523570
v -0.729844 3.279437 0.458575
v -1.044834 2.693273 0.523570
v -1.104886 2.718147 0.458575
v -1.133650 2.307695 0.523570
v -1.198651 2.307695 0.458575
v 0.256432 3.617999 0.458575
v -0.118804 3.534375 0.458575
v -0.143678 3.594427 0.393573
v 0.256432 3.682999 0.393573
v -0.683881 3.233475 0.393573
v -0.637920 3.187514 0.458575
v -1.044834 2.693273 0.393573
v -0.984781 2.668398 0.458575
v -1.133650 2.307695 0.393573
v -1.068650 2.307695 0.458575
v 0.374037 3.720609 0.458575
v 0.256432 3.682999 0.393573
v 0.256432 3.747999 0.458575
v 0.374037 3.720609 0.458575
v 0.256432 3.617999 0.458575
v 0.256432 3.682999 0.393573
v -1.198651 2.307695 0.458575
v -1.215460 2.239722 0.528575
v -1.171524 2.243143 0.528575
v -1.306683 2.286047 0.528575
v -1.366958 2.246880 0.458575
v -1.232270 2.171751 0.458575
v -1.215460 2.239722 0.528575
v -1.250877 2.324097 0.458575
v -1.377838 2.433302 0.458575
v -1.306683 2.286047 0.528575
v -1.377838 2.433302 0.458575
v -1.250877 2.324097 0.458575
v -1.306683 2.286047 0.388575
v -1.377838 2.433302 0.458575
v -1.306683 2.286047 0.388575
v -1.366958 2.246880 0.458575
v -1.377838 2.433302 0.458575
v -1.366958 2.246880 0.458575
v -1.306683 2.286047 0.528575
v -1.207046 2.012428 0.458575
v -1.207046 2.056059 0.414973
v -1.152619 2.056059 0.344973
v -1.152619 1.942456 0.458575
v -1.152619 2.169662 0.458575
v -1.207046 2.099690 0.458575
v -1.055197 2.056059 0.458575
v -1.207046 2.056059 0.502169
v -1.207046 2.012428 0.458575
v -1.152619 1.942456 0.458575
v -1.152619 2.056059 0.572169
v -1.055197 2.056059 0.458575
v -1.207046 2.099690 0.458575
v -1.207046 2.056059 0.502169
v -1.152619 2.056059 0.572169
v -1.152619 2.169662 0.458575
v -1.055197 2.056059 0.458575
v -1.285290 1.913429 0.458575
v -1.556842 2.056059 0.458575
v -1.285290 2.056059 0.315974
v -1.207046 2.056059 0.414973
v -1.207046 2.012428 0.458575
v -1.207046 2.099690 0.458575
v -1.285290 2.198689 0.458575
v -1.556842 2.056059 0.458575
v -1.285290 2.056059 0.601176
v -1.556842 2.056059 0.458575
v -1.285290 1.913429 0.458575
v -1.207046 2.012428 0.458575
v -1.207046 2.056059 0.502169
v -1.285290 2.198689 0.458575
v -1.556842 2.056059 0.458575
v -1.285290 2.056059 0.601176
v -1.207046 2.056059 0.502169
v -1.207046 2.099690 0.458575
v 1.017039 3.936707 0.241672
v 0.894208 3.936707 0.057872
v 0.880065 3.866000 0.071971
v 0.998561 3.866000 0.249370
v 0.702724 3.866000 -0.046430
v 0.710377 3.936707 -0.064931
v 0.493535 3.866000 -0.088124
v 0.493535 3.936707 -0.108128
v 1.060172 3.936707 0.458575
v 1.040172 3.866000 0.458575
v 1.017039 3.936707 0.675372
v 0.998561 3.866000 0.667773
v 0.894207 3.936707 0.859271
v 0.880065 3.866000 0.845073
v 0.710377 3.936707 0.982074
v 0.702723 3.866000 0.963573
v 0.493534 3.936707 1.025172
v 0.493534 3.866000 1.005176
v 0.276692 3.936707 0.982074
v 0.284345 3.866000 0.963573
v 0.092861 3.936707 0.859271
v 0.107003 3.866000 0.845073
v -0.029970 3.936707 0.675372
v -0.011493 3.866000 0.667773
v -0.073103 3.936707 0.458575
v -0.053103 3.866000 0.458575
v -0.029970 3.936707 0.241672
v -0.011492 3.866000 0.249370
v 0.092862 3.936707 0.057872
v 0.107004 3.866000 0.071971
v 0.276692 3.936707 -0.064931
v 0.284346 3.866000 -0.046430
v 0.493535 3.936707 -0.108128
v 0.493535 3.866000 -0.088124
v 1.035516 3.866000 0.234073
v 0.908350 3.866000 0.043773
v 0.894208 3.936707 0.057872
v 1.017039 3.936707 0.241672
v 0.710377 3.936707 -0.064931
v 0.718031 3.866000 -0.083424
v 0.493535 3.936707 -0.108128
v 0.493535 3.866000 -0.128125
v 1.080172 3.866000 0.458575
v 1.060172 3.936707 0.458575
v 1.035516 3.866000 0.683070
v 1.017039 3.936707 0.675372
v 0.908349 3.866000 0.873370
v 0.894207 3.936707 0.859271
v 0.718031 3.866000 1.000575
v 0.710377 3.936707 0.982074
v 0.493534 3.866000 1.045177
v 0.493534 3.936707 1.025172
v 0.269038 3.866000 1.000575
v 0.276692 3.936707 0.982074
v 0.078719 3.866000 0.873370
v 0.092861 3.936707 0.859271
v -0.048448 3.866000 0.683070
v -0.029970 3.936707 0.675372
v -0.093103 3.866000 0.458575
v -0.073103 3.936707 0.458575
v -0.048448 3.866000 0.234073
v -0.029970 3.936707 0.241672
v 0.078719 3.866000 0.043773
v 0.092862 3.936707 0.057872
v 0.269038 3.866000 -0.083424
v 0.276692 3.936707 -0.064931
v 0.493535 3.866000 -0.128125
v 0.493535 3.936707 -0.108128
v 2.194116 2.099690 0.458575
v 2.194116 2.056059 0.414973
v 2.139689 2.056059 0.344973
v 2.139689 2.169662 0.458575
v 2.139689 1.942456 0.458575
v 2.194116 2.012428 0.458575
v 2.042267 2.056059 0.458575
v 2.194116 2.056059 0.502169
v 2.194116 2.099690 0.458575
v 2.139689 2.169662 0.458575
v 2.139689 2.056059 0.572169
v 2.042267 2.056059 0.458575
v 2.194116 2.012428 0.458575
v 2.194116 2.056059 0.502169
v 2.139689 2.056059 0.572169
v 2.139689 1.942456 0.458575
v 2.042267 2.056059 0.458575
v 2.272359 2.198689 0.458575
v 2.543912 2.056059 0.458575
v 2.272359 2.056059 0.315974
v 2.194116 2.056059 0.414973
v 2.194116 2.099690 0.458575
v 2.194116 2.012428 0.458575
v 2.272359 1.913429 0.458575
v 2.543912 2.056059 0.458575
v 2.272359 2.056059 0.601176
v 2.543912 2.056059 0.458575
v 2.272359 2.198689 0.458575
v 2.194116 2.099690 0.458575
v 2.194116 2.056059 0.502169
v 2.272359 1.913429 0.458575
v 2.543912 2.056059 0.458575
v 2.272359 2.056059 0.601176
v 2.194116 2.056059 0.502169
v 2.194116 2.012428 0.458575
v 0.493535 3.601681 0.458575
v -0.097949 3.484028 0.458575
v -0.064663 3.403666 0.522471
v 0.493535 3.514699 0.522471
v -0.537881 3.087474 0.522471
v -0.599385 3.148979 0.458575
v -0.599385 3.148979 0.458575
v -0.934435 2.647544 0.458575
v -0.854073 2.614257 0.522471
v -0.537881 3.087474 0.522471
v -0.965106 2.056060 0.522471
v -1.052087 2.056060 0.458575
v 0.493535 3.514699 0.394671
v -0.064663 3.403666 0.394671
v -0.097949 3.484028 0.458575
v 0.493535 3.601681 0.458575
v -0.599385 3.148979 0.458575
v -0.537881 3.087474 0.394671
v -0.537881 3.087474 0.394671
v -0.854073 2.614257 0.394671
v -0.934435 2.647544 0.458575
v -0.599385 3.148979 0.458575
v -1.052087 2.056060 0.458575
v -0.965106 2.056060 0.394671
v 0.493535 0.510439 0.458575
v 0.493535 0.597421 0.522471
v -0.064663 0.708453 0.522471
v -0.097949 0.628092 0.458575
v -0.537881 1.024646 0.522471
v -0.599385 0.963141 0.458575
v -0.599385 0.963141 0.458575
v -0.537881 1.024646 0.522471
v -0.854073 1.497863 0.522471
v -0.934435 1.464576 0.458575
v -0.965106 2.056060 0.522471
v -1.052087 2.056060 0.458575
v 0.493535 0.597421 0.394671
v 0.493535 0.510439 0.458575
v -0.097949 0.628092 0.458575
v -0.064663 0.708453 0.394671
v -0.599385 0.963141 0.458575
v -0.537881 1.024646 0.394671
v -0.537881 1.024646 0.394671
v -0.599385 0.963141 0.458575
v -0.934435 1.464576 0.458575
v -0.854073 1.497863 0.394671
v -1.052087 2.056060 0.458575
v -0.965106 2.056060 0.394671
v 0.493535 3.601681 0.458575
v 0.493535 3.514699 0.522471
v 1.051732 3.403666 0.522471
v 1.085019 3.484028 0.458575
v 1.524949 3.087474 0.522471
v 1.586454 3.148979 0.458575
v 1.586454 3.148979 0.458575
v 1.524949 3.087474 0.522471
v 1.841142 2.614257 0.522471
v 1.921503 2.647544 0.458575
v 1.952175 2.056060 0.522471
v 2.039157 2.056060 0.458575
v 0.493535 3.514699 0.394671
v 0.493535 3.601681 0.458575
v 1.085019 3.484028 0.458575
v 1.051732 3.403666 0.394671
v 1.586454 3.148979 0.458575
v 1.524949 3.087474 0.394671
v 1.524949 3.087474 0.394671
v 1.586454 3.148979 0.458575
v 1.921503 2.647544 0.458575
v 1.841142 2.614257 0.394671
v 2.039157 2.056060 0.458575
v 1.952175 2.056060 0.394671
v 0.493535 0.510439 0.458575
v 1.085019 0.628092 0.458575
v 1.051732 0.708453 0.522471
v 0.493535 0.597421 0.522471
v 1.524949 1.024646 0.522471
v 1.586454 0.963141 0.458575
v 1.586454 0.963141 0.458575
v 1.921503 1.464576 0.458575
v 1.841142 1.497863 0.522471
v 1.524949 1.024646 0.522471
v 1.952175 2.056060 0.522471
v 2.039157 2.056060 0.458575
v 0.493535 0.597421 0.394671
v 1.051732 0.708453 0.394671
v 1.085019 0.628092 0.458575
v 0.493535 0.510439 0.458575
v 1.586454 0.963141 0.458575
v 1.524949 1.024646 0.394671
v 1.524949 1.024646 0.394671
v 1.841142 1.497863 0.394671
v 1.921503 1.464576 0.458575
v 1.586454 0.963141 0.458575
v 2.039157 2.056060 0.458575
v 1.952175 2.056060 0.394671
v 0.512811 0.050222 -3.417730
v -0.247952 0.050222 -3.342725
v -0.234296 0.012796 -3.274130
v 0.512811 0.012796 -3.347730
v -0.952691 0.012796 -3.056226
v -0.979479 0.050221 -3.120824
v -1.639002 0.012796 -2.738531
v -1.668315 0.012796 -2.782430
v -2.225928 0.012795 -2.256925
v -2.263235 0.012795 -2.294225
v 0.512811 0.012797 -3.487730
v -0.261608 0.012796 -3.411428
v -1.006267 0.012796 -3.185529
v -2.263235 0.012795 -2.294225
v -2.751475 0.012795 -1.699224
v -2.707605 0.012795 -1.669927
v -2.225928 0.012795 -2.256925
v -3.089897 0.050220 -1.010427
v -3.025226 0.012795 -0.983625
v -3.243148 0.012795 -0.265226
v -3.311803 0.050220 -0.278928
v -3.316732 0.012795 0.481875
v -3.386732 0.050220 0.481875
v -3.154568 0.012795 -1.037229
v -3.380458 0.012795 -0.292532
v -3.456731 0.012795 0.481875
v -0.234296 0.005684 -3.274130
v 0.512811 0.005684 -3.347730
v 0.512811 0.012796 -3.347730
v -0.234296 0.012796 -3.274130
v -0.952691 0.005684 -3.056226
v -0.234296 0.005684 -3.274130
v -0.234296 0.012796 -3.274130
v -0.952691 0.012796 -3.056226
v -1.639002 0.005684 -2.738531
v -1.639002 0.012796 -2.738531
v -2.225928 0.005683 -2.256925
v -2.225928 0.012795 -2.256925
v -2.707605 0.005683 -1.669927
v -2.225928 0.005683 -2.256925
v -2.225928 0.012795 -2.256925
v -2.707605 0.012795 -1.669927
v -3.025226 0.005683 -0.983625
v -3.025226 0.012795 -0.983625
v -3.243148 0.005683 -0.265226
v -3.243148 0.012795 -0.265226
v -3.316732 0.005683 0.481875
v -3.316732 0.012795 0.481875
v 0.512811 0.005684 -3.487730
v -0.261608 0.005684 -3.411428
v -0.261608 0.012796 -3.411428
v 0.512811 0.012797 -3.487730
v -1.006267 0.012796 -3.185529
v -1.006267 0.005684 -3.185529
v -1.668315 0.012796 -2.782430
v -1.668315 0.005684 -2.782430
v -1.668315 0.005684 -2.782430
v -2.263235 0.005683 -2.294225
v -2.263235 0.012795 -2.294225
v -1.668315 0.012796 -2.782430
v -2.263235 0.005683 -2.294225
v -2.751475 0.005683 -1.699224
v -2.751475 0.012795 -1.699224
v -2.263235 0.012795 -2.294225
v -3.154568 0.012795 -1.037229
v -3.154568 0.005683 -1.037229
v -3.380458 0.012795 -0.292532
v -3.380458 0.005683 -0.292532
v -3.456731 0.012795 0.481875
v -3.456731 0.005683 0.481875
v 0.512811 0.050222 -3.417730
v 0.512811 0.012796 -3.347730
v 1.259917 0.012796 -3.274130
v 1.273573 0.050222 -3.342725
v 1.978313 0.012796 -3.056226
v 2.005101 0.050221 -3.120824
v 2.664622 0.012796 -2.738531
v 2.693935 0.012796 -2.782430
v 3.251548 0.012795 -2.256925
v 3.288856 0.012795 -2.294225
v 0.512811 0.012797 -3.487730
v 1.287229 0.012796 -3.411428
v 2.031887 0.012796 -3.185529
v 3.288856 0.012795 -2.294225
v 3.251548 0.012795 -2.256925
v 3.733225 0.012795 -1.669927
v 3.777095 0.012795 -1.699224
v 4.115517 0.050220 -1.010427
v 4.050846 0.012795 -0.983625
v 4.268769 0.012795 -0.265226
v 4.337423 0.050220 -0.278928
v 4.342352 0.012795 0.481875
v 4.412352 0.050220 0.481875
v 4.180188 0.012795 -1.037229
v 4.406078 0.012795 -0.292532
v 4.482352 0.012795 0.481875
v 1.259917 0.005684 -3.274130
v 1.259917 0.012796 -3.274130
v 0.512811 0.012796 -3.347730
v 0.512811 0.005684 -3.347730
v 1.978313 0.005684 -3.056226
v 1.978313 0.012796 -3.056226
v 1.259917 0.012796 -3.274130
v 1.259917 0.005684 -3.274130
v 2.664622 0.005684 -2.738531
v 2.664622 0.012796 -2.738531
v 3.251548 0.005683 -2.256925
v 3.251548 0.012795 -2.256925
v 3.733225 0.005683 -1.669927
v 3.733225 0.012795 -1.669927
v 3.251548 0.012795 -2.256925
v 3.251548 0.005683 -2.256925
v 4.050846 0.005683 -0.983625
v 4.050846 0.012795 -0.983625
v 4.268769 0.005683 -0.265226
v 4.268769 0.012795 -0.265226
v 4.342352 0.005683 0.481875
v 4.342352 0.012795 0.481875
v 0.512811 0.005684 -3.487730
v 0.512811 0.012797 -3.487730
v 1.287229 0.012796 -3.411428
v 1.287229 0.005684 -3.411428
v 2.031887 0.012796 -3.185529
v 2.031887 0.005684 -3.185529
v 2.693935 0.012796 -2.782430
v 2.693935 0.005684 -2.782430
v 2.693935 0.005684 -2.782430
v 2.693935 0.012796 -2.782430
v 3.288856 0.012795 -2.294225
v 3.288856 0.005683 -2.294225
v 3.288856 0.005683 -2.294225
v 3.288856 0.012795 -2.294225
v 3.777095 0.012795 -1.699224
v 3.777095 0.005683 -1.699224
v 4.180188 0.012795 -1.037229
v 4.180188 0.005683 -1.037229
v 4.406078 0.012795 -0.292532
v 4.406078 0.005683 -0.292532
v 4.482352 0.012795 0.481875
v 4.482352 0.005683 0.481875
v 0.512811 0.050218 4.381372
v 0.512811 0.012793 4.311373
v -0.234296 0.012793 4.237772
v -0.247952 0.050218 4.306475
v -0.952691 0.012793 4.019869
v -0.979479 0.050218 4.084574
v -1.639002 0.012793 3.702273
v -1.668315 0.012793 3.746172
v -2.225928 0.012794 3.220576
v -2.263235 0.012794 3.257876
v 0.512811 0.012793 4.451372
v -0.261608 0.012793 4.375071
v -1.006267 0.012793 4.149271
v -2.263235 0.012794 3.257876
v -2.225928 0.012794 3.220576
v -2.707605 0.012795 2.633669
v -2.751475 0.012795 2.662974
v -3.089897 0.050220 1.974169
v -3.025226 0.012795 1.947375
v -3.243148 0.012795 1.228976
v -3.311803 0.050220 1.242571
v -3.316732 0.012795 0.481875
v -3.386732 0.050220 0.481875
v -3.154568 0.012795 2.000971
v -3.380458 0.012795 1.256274
v -3.456731 0.012795 0.481875
v -0.234296 0.005681 4.237772
v -0.234296 0.012793 4.237772
v 0.512811 0.012793 4.311373
v 0.512811 0.005681 4.311373
v -0.952691 0.005681 4.019869
v -0.952691 0.012793 4.019869
v -0.234296 0.012793 4.237772
v -0.234296 0.005681 4.237772
v -1.639002 0.005681 3.702273
v -1.639002 0.012793 3.702273
v -2.225928 0.005682 3.220576
v -2.225928 0.012794 3.220576
v -2.707605 0.005682 2.633669
v -2.707605 0.012795 2.633669
v -2.225928 0.012794 3.220576
v -2.225928 0.005682 3.220576
v -3.025226 0.005683 1.947375
v -3.025226 0.012795 1.947375
v -3.243148 0.005683 1.228976
v -3.243148 0.012795 1.228976
v -3.316732 0.005683 0.481875
v -3.316732 0.012795 0.481875
v 0.512811 0.005681 4.451372
v 0.512811 0.012793 4.451372
v -0.261608 0.012793 4.375071
v -0.261608 0.005681 4.375071
v -1.006267 0.012793 4.149271
v -1.006267 0.005681 4.149271
v -1.668315 0.012793 3.746172
v -1.668315 0.005681 3.746172
v -1.668315 0.005681 3.746172
v -1.668315 0.012793 3.746172
v -2.263235 0.012794 3.257876
v -2.263235 0.005682 3.257876
v -2.263235 0.005682 3.257876
v -2.263235 0.012794 3.257876
v -2.751475 0.012795 2.662974
v -2.751475 0.005682 2.662974
v -3.154568 0.012795 2.000971
v -3.154568 0.005683 2.000971
v -3.380458 0.012795 1.256274
v -3.380458 0.005683 1.256274
v -3.456731 0.012795 0.481875
v -3.456731 0.005683 0.481875
v 0.512811 0.050218 4.381372
v 1.273573 0.050218 4.306475
v 1.259917 0.012793 4.237772
v 0.512811 0.012793 4.311373
v 1.978313 0.012793 4.019869
v 2.005101 0.050218 4.084574
v 2.664622 0.012793 3.702273
v 2.693935 0.012793 3.746172
v 3.251548 0.012794 3.220576
v 3.288856 0.012794 3.257876
v 0.512811 0.012793 4.451372
v 1.287229 0.012793 4.375071
v 2.031887 0.012793 4.149271
v 3.288856 0.012794 3.257876
v 3.777095 0.012795 2.662974
v 3.733225 0.012795 2.633669
v 3.251548 0.012794 3.220576
v 4.115517 0.050220 1.974169
v 4.050846 0.012795 1.947375
v 4.268769 0.012795 1.228976
v 4.337423 0.050220 1.242571
v 4.342352 0.012795 0.481875
v 4.412352 0.050220 0.481875
v 4.180188 0.012795 2.000971
v 4.406078 0.012795 1.256274
v 4.482352 0.012795 0.481875
v 1.259917 0.005681 4.237772
v 0.512811 0.005681 4.311373
v 0.512811 0.012793 4.311373
v 1.259917 0.012793 4.237772
v 1.978313 0.005681 4.019869
v 1.259917 0.005681 4.237772
v 1.259917 0.012793 4.237772
v 1.978313 0.012793 4.019869
v 2.664622 0.005681 3.702273
v 2.664622 0.012793 3.702273
v 3.251548 0.005682 3.220576
v 3.251548 0.012794 3.220576
v 3.733225 0.005682 2.633669
v 3.251548 0.005682 3.220576
v 3.251548 0.012794 3.220576
v 3.733225 0.012795 2.633669
v 4.050846 0.005683 1.947375
v 4.050846 0.012795 1.947375
v 4.268769 0.005683 1.228976
v 4.268769 0.012795 1.228976
v 4.342352 0.005683 0.481875
v 4.342352 0.012795 0.481875
v 0.512811 0.005681 4.451372
v 1.287229 0.005681 4.375071
v 1.287229 0.012793 4.375071
v 0.512811 0.012793 4.451372
v 2.031887 0.012793 4.149271
v 2.031887 0.005681 4.149271
v 2.693935 0.012793 3.746172
v 2.693935 0.005681 3.746172
v 2.693935 0.005681 3.746172
v 3.288856 0.005682 3.257876
v 3.288856 0.012794 3.257876
v 2.693935 0.012793 3.746172
v 3.288856 0.005682 3.257876
v 3.777095 0.005682 2.662974
v 3.777095 0.012795 2.662974
v 3.288856 0.012794 3.257876
v 4.180188 0.012795 2.000971
v 4.180188 0.005683 2.000971
v 4.406078 0.012795 1.256274
v 4.406078 0.005683 1.256274
v 4.482352 0.012795 0.481875
v 4.482352 0.005683 0.481875
vt 0.5000 0.5000
vt 0.2818 0.5000
vt 0.2818 0.4266
vt 0.5000 0.4266
vt 0.0639 0.4266
vt 0.0639 0.5000
vt 0.2818 0.2576
vt 0.2818 0.5000
vt 0.5000 0.5000
vt 0.5000 0.4266
vt 0.2818 0.4266
vt 0.2818 0.2576
vt 0.0639 0.5000
vt 0.2818 0.5000
vt 0.2818 0.4266
vt 0.0639 0.4266
vt 0.2818 0.2576
vt 0.5000 0.5845
vt 0.5000 0.9452
vt 0.2818 0.5845
vt 0.2818 0.5000
vt 0.5000 0.5000
vt 0.0639 0.5000
vt 0.0639 0.5845
vt 0.0639 0.9452
vt 0.2818 0.5845
vt 0.5000 0.9452
vt 0.5000 0.5845
vt 0.5000 0.5000
vt 0.2818 0.5000
vt 0.0639 0.5845
vt 0.0639 0.9452
vt 0.2818 0.5845
vt 0.2818 0.5000
vt 0.0639 0.5000
vt 0.5000 0.5000
vt 0.2818 0.5000
vt 0.2818 0.4266
vt 0.5000 0.4266
vt 0.0639 0.4266
vt 0.0639 0.5000
vt 0.2818 0.2576
vt 0.2818 0.5000
vt 0.5000 0.5000
vt 0.5000 0.4266
vt 0.2818 0.4266
vt 0.2818 0.2576
vt 0.0639 0.5000
vt 0.2818 0.5000
vt 0.2818 0.4266
vt 0.0639 0.4266
vt 0.2818 0.2576
vt 0.5000 0.5845
vt 0.5000 0.9452
vt 0.2818 0.5845
vt 0.2818 0.5000
vt 0.5000 0.5000
vt 0.0639 0.5000
vt 0.0639 0.5845
vt 0.0639 0.9452
vt 0.2818 0.5845
vt 0.5000 0.9452
vt 0.5000 0.5845
vt 0.5000 0.5000
vt 0.2818 0.5000
vt 0.0639 0.5845
vt 0.0639 0.9452
vt 0.2818 0.5845
vt 0.2818 0.5000
vt 0.0639 0.5000
vt 0.5082 1.0000
vt 1.0000 1.0000
vt 0.0000 1.0000
vt 0.5082 1.0000
vt 0.0000 1.0000
vt 0.5082 1.0000
vt 1.0000 0.0000
vt 0.5082 0.0000
vt 1.0000 0.0000
vt 0.5082 0.0000
vt 0.5082 1.0000
vt 0.0000 1.0000
vt 0.5082 0.0000
vt 0.0000 0.0000
vt 0.0000 0.0000
vt 0.5082 0.0000
vt 1.0000 0.0000
vt 0.5082 0.0000
vt 0.5082 0.0000
vt 1.0000 0.0000
vt 0.5082 0.0000
vt 0.5082 0.0000
vt 0.0000 0.0000
vt 0.5082 1.0000
vt 0.0000 1.0000
vt 0.5082 1.0000
vt 0.0000 1.0000
vt 0.5082 1.0000
vt 0.0000 1.0000
vt 0.0000 0.0000
vt 0.5082 0.0000
vt 0.0000 0.0000
vt 0.0000 0.0000
vt 0.5082 0.0000
vt 0.0000 0.0000
vt 0.5082 0.0000
vt 0.5082 0.0000
vt 0.0000 1.0000
vt 0.5082 1.0000
vt 0.5082 1.0000
vt 0.0000 1.0000
vt 0.5082 1.0000
vt 0.0000 1.0000
vt 0.5082 0.0000
vt 0.0000 0.0000
vt 0.5082 0.0000
vt 0.0000 0.0000
vt 0.0000 1.0000
vt 0.5082 1.0000
vt 0.5082 1.0000
vt 1.0000 1.0000
vt 0.5082 1.0000
vt 0.0000 1.0000
vt 0.5082 0.0000
vt 1.0000 0.0000
vt 0.5082 0.0000
vt 1.0000 0.0000
vt 0.5082 1.0000
vt 0.5082 1.0000
vt 0.0000 1.0000
vt 0.0000 1.0000
vt 0.5082 1.0000
vt 0.5082 1.0000
vt 0.5082 0.0000
vt 0.0000 0.0000
vt 0.5082 0.0000
vt 0.5082 0.0000
vt 0.5082 0.0000
vt 1.0000 0.0000
vt 1.0000 0.0000
vt 0.5082 0.0000
vt 0.5082 0.0000
vt 0.0000 0.0000
vt 0.5082 0.0000
vt 0.0000 0.0000
vt 0.5082 0.0000
vt 0.0000 0.0000
vt 0.5082 0.0000
vt 0.5082 0.0000
vt 0.5082 0.0000
vt 0.5082 0.0000
vt 1.0000 0.0000
vt 1.0000 0.0000
vt 0.5082 0.0000
vt 0.5082 0.0000
vt 0.0000 1.0000
vt 0.0000 1.0000
vt 0.0000 1.0000
vt 1.0000 1.0000
vt 0.0000 1.0000
vt 0.5082 1.0000
vt 1.0000 0.0000
vt 0.5082 0.0000
vt 1.0000 0.0000
vt 0.5082 0.0000
vt 0.5082 1.0000
vt 0.0000 1.0000
vt 0.5082 0.0000
vt 0.0000 0.0000
vt 0.0000 0.0000
vt 0.5082 0.0000
vt 1.0000 0.0000
vt 0.5082 0.0000
vt 0.5082 0.0000
vt 0.0000 0.0000
vt 0.5082 0.0000
vt 0.5082 0.0000
vt 0.0000 0.0000
vt 0.5082 1.0000
vt 0.0000 1.0000
vt 0.5082 1.0000
vt 0.0000 1.0000
vt 0.5082 1.0000
vt 0.0000 1.0000
vt 1.0000 0.0000
vt 0.5082 0.0000
vt 0.0000 0.0000
vt 0.5082 0.0000
vt 0.0000 0.0000
vt 0.0000 0.0000
vt 0.5082 0.0000
vt 0.5082 0.0000
vt 0.5082 0.0000
vt 0.0000 0.0000
vt 0.5082 0.0000
vt 0.0000 1.0000
vt 0.0000 1.0000
vt 0.5082 1.0000
vt 0.5082 1.0000
vt 0.5082 1.0000
vt 0.0000 1.0000
vt 0.5082 0.0000
vt 0.0000 0.0000
vt 0.5082 0.0000
vt 0.0000 0.0000
vt 0.0000 1.0000
vt 1.0000 1.0000
vt 0.5082 1.0000
vt 0.5082 1.0000
vt 0.5082 1.0000
vt 1.0000 1.0000
vt 0.5082 0.0000
vt 1.0000 0.0000
vt 0.5082 0.0000
vt 1.0000 0.0000
vt 0.5082 1.0000
vt 0.5082 1.0000
vt 0.0000 1.0000
vt 0.5082 1.0000
vt 0.0000 1.0000
vt 0.5082 1.0000
vt 0.0000 0.0000
vt 0.5082 0.0000
vt 0.5082 0.0000
vt 0.5082 0.0000
vt 1.0000 0.0000
vt 1.0000 0.0000
vt 0.5082 0.0000
vt 0.0000 0.0000
vt 0.5082 0.0000
vt 0.5082 0.0000
vt 0.5082 0.0000
vt 0.0000 0.0000
vt 0.5082 0.0000
vt 0.5082 0.0000
vt 0.5082 0.0000
vt 1.0000 0.0000
vt 0.5082 0.0000
vt 1.0000 0.0000
vt 0.5082 0.0000
vt 0.5082 1.0000
vt 1.0000 1.0000
vt 0.0000 1.0000
vt 0.5082 1.0000
vt 0.0000 1.0000
vt 0.5082 1.0000
vt 1.0000 0.0000
vt 0.5082 0.0000
vt 1.0000 0.0000
vt 0.5082 0.0000
vt 0.5082 1.0000
vt 0.0000 1.0000
vt 0.5082 0.0000
vt 0.0000 0.0000
vt 0.0000 0.0000
vt 0.5082 0.0000
vt 1.0000 0.0000
vt 0.5082 0.0000
vt 0.5082 0.0000
vt 0.0000 0.0000
vt 0.5082 0.0000
vt 0.5082 0.0000
vt 0.0000 0.0000
vt 0.5082 1.0000
vt 0.0000 1.0000
vt 0.5082 1.0000
vt 0.0000 1.0000
vt 0.5082 1.0000
vt 0.0000 1.0000
vt 1.0000 0.0000
vt 0.5082 0.0000
vt 0.0000 0.0000
vt 1.0000 0.0000
vt 0.5082 0.0000
vt 0.0000 0.0000
vt 0.5082 0.0000
vt 0.5082 0.0000
vt 0.0000 1.0000
vt 0.5082 1.0000
vt 0.5082 1.0000
vt 0.0000 1.0000
vt 0.5082 1.0000
vt 0.0000 1.0000
vt 0.5082 0.0000
vt 0.0000 0.0000
vt 0.5082 0.0000
vt 0.0000 0.0000
vt 0.0000 1.0000
vt 0.5082 1.0000
vt 0.5082 1.0000
vt 1.0000 1.0000
vt 0.5082 1.0000
vt 1.0000 1.0000
vt 0.5082 0.0000
vt 1.0000 0.0000
vt 0.5082 0.0000
vt 1.0000 0.0000
vt 0.5082 1.0000
vt 0.5082 1.0000
vt 0.0000 1.0000
vt 0.0000 1.0000
vt 0.5082 1.0000
vt 0.5082 1.0000
vt 0.5082 0.0000
vt 0.0000 0.0000
vt 0.5082 0.0000
vt 0.5082 0.0000
vt 0.5082 0.0000
vt 1.0000 0.0000
vt 1.0000 0.0000
vt 0.5082 0.0000
vt 0.5082 0.0000
vt 0.0000 0.0000
vt 0.5082 0.0000
vt 0.0000 0.0000
vt 0.5082 0.0000
vt 0.0000 0.0000
vt 0.5082 0.0000
vt 0.5082 0.0000
vt 0.5082 0.0000
vt 0.5082 0.0000
vt 1.0000 0.0000
vt 1.0000 0.0000
vt 0.5082 0.0000
vt 0.5082 0.0000
vt 0.5082 1.0000
vt 0.5082 1.0000
vt 0.0000 1.0000
vt 1.0000 1.0000
vt 0.0000 1.0000
vt 0.5082 1.0000
vt 1.0000 0.0000
vt 0.5082 0.0000
vt 1.0000 0.0000
vt 0.5082 0.0000
vt 0.5082 1.0000
vt 0.0000 1.0000
vt 0.5082 0.0000
vt 0.0000 0.0000
vt 0.0000 0.0000
vt 0.5082 0.0000
vt 1.0000 0.0000
vt 0.5082 0.0000
vt 0.5082 0.0000
vt 0.0000 0.0000
vt 0.5082 0.0000
vt 0.5082 0.0000
vt 0.0000 0.0000
vt 0.5082 1.0000
vt 0.0000 1.0000
vt 0.5082 1.0000
vt 0.0000 1.0000
vt 0.5082 1.0000
vt 0.0000 1.0000
vt 1.0000 0.0000
vt 0.5082 0.0000
vt 1.0000 0.0000
vt 0.5082 0.0000
vt 1.0000 0.0000
vt 0.0000 0.0000
vt 0.5082 0.0000
vt 0.5082 0.0000
vt 0.5082 0.0000
vt 0.0000 0.0000
vt 0.5082 0.0000
vt 0.0000 1.0000
vt 0.0000 1.0000
vt 0.5082 1.0000
vt 0.5082 1.0000
vt 0.5082 1.0000
vt 0.0000 1.0000
vt 0.5082 0.0000
vt 0.0000 0.0000
vt 0.5082 0.0000
vt 0.0000 0.0000
vt 0.0000 1.0000
vt 1.0000 1.0000
vt 0.5082 1.0000
vt 0.5082 1.0000
vt 0.5082 1.0000
vt 1.0000 1.0000
vt 0.5082 0.0000
vt 1.0000 0.0000
vt 0.5082 0.0000
vt 1.0000 0.0000
vt 0.5082 1.0000
vt 0.5082 1.0000
vt 0.0000 1.0000
vt 0.5082 1.0000
vt 0.0000 1.0000
vt 0.5082 1.0000
vt 0.0000 0.0000
vt 0.5082 0.0000
vt 0.5082 0.0000
vt 0.5082 0.0000
vt 1.0000 0.0000
vt 1.0000 0.0000
vt 0.5082 0.0000
vt 0.0000 0.0000
vt 0.5082 0.0000
vt 0.5082 0.0000
vt 0.5082 0.0000
vt 0.0000 0.0000
vt 0.5082 0.0000
vt 0.5082 0.0000
vt 0.5082 0.0000
vt 1.0000 0.0000
vt 0.5082 0.0000
vt 1.0000 0.0000
vt 0.5082 0.0000
vt 0.5000 0.5000
vt 0.2818 0.5000
vt 0.2818 0.4266
vt 0.5000 0.4266
vt 0.0639 0.4266
vt 0.0639 0.5000
vt 0.2818 0.2576
vt 0.2818 0.5000
vt 0.5000 0.5000
vt 0.5000 0.4266
vt 0.2818 0.4266
vt 0.2818 0.2576
vt 0.0639 0.5000
vt 0.2818 0.5000
vt 0.2818 0.4266
vt 0.0639 0.4266
vt 0.2818 0.2576
vt 0.5000 0.5845
vt 0.5000 0.9452
vt 0.2818 0.5845
vt 0.2818 0.5000
vt 0.5000 0.5000
vt 0.0639 0.5000
vt 0.0639 0.5845
vt 0.0639 0.9452
vt 0.2818 0.5845
vt 0.5000 0.9452
vt 0.5000 0.5845
vt 0.5000 0.5000
vt 0.2818 0.5000
vt 0.0639 0.5845
vt 0.0639 0.9452
vt 0.2818 0.5845
vt 0.2818 0.5000
vt 0.0639 0.5000
vt 0.5000 0.0000
vt 0.5000 0.0000
vt 0.0000 0.0000
vt 0.0000 0.0000
vt 0.0000 0.0000
vt 0.5000 0.0000
vt 0.0000 0.0000
vt 0.5000 0.0000
vt 0.5000 0.0000
vt 0.0000 0.0000
vt 0.5000 0.0000
vt 0.0000 0.0000
vt 0.0000 1.0000
vt 1.0000 1.0000
vt 0.5000 0.2500
vt 1.0000 0.2500
vt 0.5000 0.5000
vt 1.0000 0.5000
vt 0.5000 0.7500
vt 1.0000 0.7500
vt 0.5000 1.0000
vt 1.0000 1.0000
vt 0.5000 1.0000
vt 1.0000 1.0000
vt 0.5000 1.0000
vt 1.0000 1.0000
vt 0.5000 1.0000
vt 1.0000 1.0000
vt 0.5000 1.0000
vt 1.0000 1.0000
vt 0.5000 1.0000
vt 1.0000 1.0000
vt 0.5000 1.0000
vt 1.0000 1.0000
vt 0.0000 0.0000
vt 0.0000 0.0000
vt 0.5000 0.0000
vt 0.5000 0.0000
vt 0.5000 0.0000
vt 0.0000 0.0000
vt 0.5000 0.0000
vt 0.0000 0.0000
vt 0.0000 0.0000
vt 0.5000 0.0000
vt 1.0000 0.0000
vt 0.5000 0.0000
vt 0.0000 1.0000
vt 0.5000 1.0000
vt 0.0000 0.2500
vt 0.5000 0.2500
vt 0.0000 0.5000
vt 0.5000 0.5000
vt 0.0000 0.7500
vt 0.5000 0.7500
vt 0.0000 1.0000
vt 0.5000 1.0000
vt 0.0000 1.0000
vt 0.5000 1.0000
vt 0.0000 1.0000
vt 0.5000 1.0000
vt 1.0000 1.0000
vt 0.5000 1.0000
vt 1.0000 1.0000
vt 0.5000 1.0000
vt 1.0000 1.0000
vt 0.5000 1.0000
vt 1.0000 1.0000
vt 0.5000 1.0000
vt 0.5000 0.5000
vt 0.2818 0.5000
vt 0.2818 0.4266
vt 0.5000 0.4266
vt 0.0639 0.4266
vt 0.0639 0.5000
vt 0.2818 0.2576
vt 0.2818 0.5000
vt 0.5000 0.5000
vt 0.5000 0.4266
vt 0.2818 0.4266
vt 0.2818 0.2576
vt 0.0639 0.5000
vt 0.2818 0.5000
vt 0.2818 0.4266
vt 0.0639 0.4266
vt 0.2818 0.2576
vt 0.5000 0.5845
vt 0.5000 0.9452
vt 0.2818 0.5845
vt 0.2818 0.5000
vt 0.5000 0.5000
vt 0.0639 0.5000
vt 0.0639 0.5845
vt 0.0639 0.9452
vt 0.2818 0.5845
vt 0.5000 0.9452
vt 0.5000 0.5845
vt 0.5000 0.5000
vt 0.2818 0.5000
vt 0.0639 0.5845
vt 0.0639 0.9452
vt 0.2818 0.5845
vt 0.2818 0.5000
vt 0.0639 0.5000
vt 0.0000 0.1651
vt 0.0000 0.5007
vt 0.5150 0.5007
vt 0.5150 0.1651
vt 0.5150 0.8663
vt 0.0000 0.8663
vt 0.0000 0.6731
vt 0.0000 1.0000
vt 0.5150 1.0000
vt 0.5150 0.6731
vt 0.5150 1.0000
vt 1.0000 1.0000
vt 0.5150 0.1651
vt 0.5150 0.5007
vt 0.0000 0.5007
vt 0.0000 0.1651
vt 0.0000 0.8663
vt 0.5150 0.8663
vt 0.5150 0.6731
vt 0.5150 1.0000
vt 0.0000 1.0000
vt 0.0000 0.6731
vt 1.0000 1.0000
vt 0.5150 1.0000
vt 0.0000 0.1651
vt 0.5150 0.1651
vt 0.5150 0.5007
vt 0.0000 0.5007
vt 0.5150 0.8663
vt 0.0000 0.8663
vt 0.0000 0.6731
vt 0.5150 0.6731
vt 0.5150 1.0000
vt 0.0000 1.0000
vt 0.5150 1.0000
vt 1.0000 1.0000
vt 0.5150 0.1651
vt 0.0000 0.1651
vt 0.0000 0.5007
vt 0.5150 0.5007
vt 0.0000 0.8663
vt 0.5150 0.8663
vt 0.5150 0.6731
vt 0.0000 0.6731
vt 0.0000 1.0000
vt 0.5150 1.0000
vt 1.0000 1.0000
vt 0.5150 1.0000
vt 0.0000 0.1651
vt 0.5150 0.1651
vt 0.5150 0.5007
vt 0.0000 0.5007
vt 0.5150 0.8663
vt 0.0000 0.8663
vt 0.0000 0.6731
vt 0.5150 0.6731
vt 0.5150 1.0000
vt 0.0000 1.0000
vt 0.5150 1.0000
vt 1.0000 1.0000
vt 0.5150 0.1651
vt 0.0000 0.1651
vt 0.0000 0.5007
vt 0.5150 0.5007
vt 0.0000 0.8663
vt 0.5150 0.8663
vt 0.5150 0.6731
vt 0.0000 0.6731
vt 0.0000 1.0000
vt 0.5150 1.0000
vt 1.0000 1.0000
vt 0.5150 1.0000
vt 0.0000 0.1651
vt 0.0000 0.5007
vt 0.5150 0.5007
vt 0.5150 0.1651
vt 0.5150 0.8663
vt 0.0000 0.8663
vt 0.0000 0.6731
vt 0.0000 1.0000
vt 0.5150 1.0000
vt 0.5150 0.6731
vt 0.5150 1.0000
vt 0.0000 1.0000
vt 0.5150 0.1651
vt 0.5150 0.5007
vt 0.0000 0.5007
vt 0.0000 0.1651
vt 0.0000 0.8663
vt 0.5150 0.8663
vt 0.5150 0.6731
vt 0.5150 1.0000
vt 0.0000 1.0000
vt 0.0000 0.6731
vt 1.0000 1.0000
vt 0.5150 1.0000
vt 0.5000 0.6634
vt 0.5000 1.0000
vt 0.0060 1.0000
vt 0.0060 0.6634
vt 0.0060 0.0000
vt 0.5000 0.0000
vt 0.0060 0.0000
vt 0.5000 0.0000
vt 0.0060 0.0000
vt 0.5000 0.0000
vt 0.9940 0.6634
vt 0.9940 0.0000
vt 0.9940 0.0000
vt 0.5000 0.0000
vt 0.5000 0.0000
vt 0.0060 0.0000
vt 0.0060 0.0000
vt 0.5000 0.0000
vt 0.0060 0.0000
vt 0.0060 0.0000
vt 0.5000 1.0000
vt 0.0060 0.6634
vt 0.5000 0.6634
vt 0.9940 0.0000
vt 0.9940 0.0000
vt 0.9940 0.6634
vt 0.0060 1.0000
vt 0.0060 0.6634
vt 0.0060 0.6634
vt 0.0060 1.0000
vt 0.0060 0.0000
vt 0.0060 1.0000
vt 0.0060 1.0000
vt 0.0060 0.0000
vt 0.0060 0.0000
vt 0.0060 0.0000
vt 0.0060 0.0000
vt 0.0060 0.0000
vt 0.0060 0.0000
vt 0.0060 0.0000
vt 0.0060 0.0000
vt 0.0060 0.0000
vt 0.0060 0.0000
vt 0.0060 0.0000
vt 0.0060 1.0000
vt 0.0060 0.0000
vt 0.0060 0.6634
vt 0.0060 0.6634
vt 0.9940 0.6634
vt 0.9940 1.0000
vt 0.9940 0.0000
vt 0.9940 0.6634
vt 0.9940 0.0000
vt 0.9940 0.0000
vt 0.5000 0.0000
vt 0.9940 0.0000
vt 0.9940 0.0000
vt 0.9940 0.0000
vt 0.5000 0.0000
vt 0.5000 0.0000
vt 0.9940 0.0000
vt 0.9940 0.0000
vt 0.5000 0.0000
vt 0.5000 0.0000
vt 0.9940 0.0000
vt 0.9940 0.0000
vt 0.9940 0.0000
vt 0.9940 0.0000
vt 0.9940 0.6634
vt 0.9940 0.6634
vt 0.5000 0.6634
vt 0.0060 0.6634
vt 0.0060 1.0000
vt 0.5000 1.0000
vt 0.0060 0.0000
vt 0.5000 0.0000
vt 0.0060 0.0000
vt 0.5000 0.0000
vt 0.0060 0.0000
vt 0.5000 0.0000
vt 0.9940 0.6634
vt 0.9940 0.0000
vt 0.9940 0.0000
vt 0.5000 0.0000
vt 0.0060 0.0000
vt 0.0060 0.0000
vt 0.5000 0.0000
vt 0.5000 0.0000
vt 0.0060 0.0000
vt 0.0060 0.0000
vt 0.5000 1.0000
vt 0.0060 0.6634
vt 0.5000 0.6634
vt 0.9940 0.0000
vt 0.9940 0.0000
vt 0.9940 0.6634
vt 0.0060 1.0000
vt 0.0060 1.0000
vt 0.0060 0.6634
vt 0.0060 0.6634
vt 0.0060 0.0000
vt 0.0060 0.0000
vt 0.0060 1.0000
vt 0.0060 0.0000
vt 0.0060 0.0000
vt 0.0060 0.0000
vt 0.0060 0.0000
vt 0.0060 0.0000
vt 0.0060 0.0000
vt 0.0060 0.0000
vt 0.0060 0.0000
vt 0.0060 0.0000
vt 0.0060 0.0000
vt 0.0060 0.0000
vt 0.0060 1.0000
vt 0.0060 0.0000
vt 0.0060 0.6634
vt 0.0060 0.6634
vt 0.9940 0.6634
vt 0.9940 0.6634
vt 0.9940 0.0000
vt 0.9940 1.0000
vt 0.9940 0.0000
vt 0.9940 0.0000
vt 0.5000 0.0000
vt 0.9940 0.0000
vt 0.9940 0.0000
vt 0.5000 0.0000
vt 0.5000 0.0000
vt 0.9940 0.0000
vt 0.9940 0.0000
vt 0.5000 0.0000
vt 0.5000 1.0000
vt 0.9940 0.0000
vt 0.9940 0.0000
vt 0.9940 0.0000
vt 0.9940 0.0000
vt 0.9940 0.0000
vt 0.9940 0.6634
vt 0.9940 0.6634
vt 0.5000 0.6634
vt 0.0060 0.6634
vt 0.0060 1.0000
vt 0.5000 1.0000
vt 0.0060 0.0000
vt 0.5000 0.0000
vt 0.0060 0.0000
vt 0.5000 0.0000
vt 0.0060 0.0000
vt 0.5000 0.0000
vt 0.9940 0.6634
vt 0.9940 0.0000
vt 0.9940 0.0000
vt 0.5000 0.0000
vt 0.0060 0.0000
vt 0.0060 0.0000
vt 0.5000 0.0000
vt 0.5000 0.0000
vt 0.0060 0.0000
vt 0.0060 0.0000
vt 0.5000 1.0000
vt 0.0060 0.6634
vt 0.5000 0.6634
vt 0.9940 0.0000
vt 0.9940 0.0000
vt 0.9940 0.6634
vt 0.0060 1.0000
vt 0.0060 1.0000
vt 0.0060 0.6634
vt 0.0060 0.6634
vt 0.0060 0.0000
vt 0.0060 0.0000
vt 0.0060 1.0000
vt 0.0060 1.0000
vt 0.0060 0.0000
vt 0.0060 0.0000
vt 0.0060 0.0000
vt 0.0060 0.0000
vt 0.0060 0.0000
vt 0.0060 0.0000
vt 0.0060 0.0000
vt 0.0060 0.0000
vt 0.0060 0.0000
vt 0.0060 0.0000
vt 0.0060 1.0000
vt 0.0060 0.0000
vt 0.0060 0.6634
vt 0.0060 0.6634
vt 0.9940 0.6634
vt 0.9940 0.6634
vt 0.9940 0.0000
vt 0.9940 1.0000
vt 0.9940 0.0000
vt 0.9940 0.0000
vt 0.5000 0.0000
vt 0.9940 0.0000
vt 0.9940 0.0000
vt 0.5000 0.0000
vt 0.5000 0.0000
vt 0.9940 0.0000
vt 0.9940 0.0000
vt 0.5000 0.0000
vt 0.5000 0.0000
vt 0.9940 0.0000
vt 0.9940 0.0000
vt 0.9940 0.0000
vt 0.9940 0.0000
vt 0.9940 0.0000
vt 0.9940 0.6634
vt 0.9940 0.6634
vt 0.5000 0.6634
vt 0.5000 1.0000
vt 0.0060 1.0000
vt 0.0060 0.6634
vt 0.0060 0.0000
vt 0.5000 0.0000
vt 0.0060 0.0000
vt 0.5000 0.0000
vt 0.0060 0.0000
vt 0.5000 0.0000
vt 0.9940 0.6634
vt 0.9940 0.0000
vt 0.9940 0.0000
vt 0.5000 0.0000
vt 0.5000 0.0000
vt 0.0060 0.0000
vt 0.0060 0.0000
vt 0.5000 0.0000
vt 0.0060 0.0000
vt 0.0060 0.0000
vt 0.5000 1.0000
vt 0.0060 0.6634
vt 0.5000 0.6634
vt 0.9940 0.0000
vt 0.9940 0.0000
vt 0.9940 0.6634
vt 0.0060 1.0000
vt 0.0060 0.6634
vt 0.0060 0.6634
vt 0.0060 1.0000
vt 0.0060 0.0000
vt 0.0060 1.0000
vt 0.0060 1.0000
vt 0.0060 0.0000
vt 0.0060 0.0000
vt 0.0060 0.0000
vt 0.0060 0.0000
vt 0.0060 0.0000
vt 0.0060 0.0000
vt 0.0060 0.0000
vt 0.0060 0.0000
vt 0.0060 0.0000
vt 0.0060 0.0000
vt 0.0060 0.0000
vt 0.0060 1.0000
vt 0.0060 0.0000
vt 0.0060 0.6634
vt 0.0060 0.6634
vt 0.9940 0.6634
vt 0.9940 1.0000
vt 0.9940 0.0000
vt 0.9940 0.6634
vt 0.9940 0.0000
vt 0.9940 0.0000
vt 0.5000 0.0000
vt 0.9940 0.0000
vt 0.9940 0.0000
vt 0.9940 0.0000
vt 0.5000 0.0000
vt 0.5000 0.0000
vt 0.9940 0.0000
vt 0.9940 0.0000
vt 0.5000 0.0000
vt 0.5000 0.0000
vt 0.9940 0.0000
vt 0.9940 0.0000
vt 0.9940 0.0000
vt 0.9940 0.0000
vt 0.9940 0.6634
vt 0.9940 0.6634
vn 0.5229 -0.6729 -0.5232
vn 0.5232 -0.6727 -0.5232
vn -0.5231 -0.6728 -0.5231
vn -0.5231 -0.6725 -0.5235
vn 0.5456 0.6362 -0.5456
vn -0.5456 0.6362 -0.5456
vn 0.5231 -0.6725 0.5236
vn 0.5231 -0.6728 0.5231
vn 0.5455 0.6362 0.5456
vn -0.5228 -0.6730 0.5233
vn -0.5232 -0.6726 0.5233
vn -0.5455 0.6362 0.5456
vn 0.6628 -0.3481 -0.6629
vn 0.5269 0.6668 -0.5270
vn 0.5269 0.6667 -0.5272
vn -0.5267 0.6669 -0.5271
vn -0.5270 0.6667 -0.5271
vn -0.6628 -0.3481 -0.6629
vn 0.6628 -0.3481 0.6629
vn 0.5269 0.6667 0.5271
vn 0.5266 0.6670 0.5271
vn -0.6628 -0.3481 0.6629
vn -0.5269 0.6668 0.5270
vn -0.5269 0.6666 0.5273
vn -0.5229 0.6729 -0.5232
vn -0.5232 0.6727 -0.5232
vn 0.5231 0.6728 -0.5231
vn 0.5231 0.6725 -0.5235
vn -0.5456 -0.6362 -0.5456
vn 0.5456 -0.6362 -0.5456
vn -0.5231 0.6725 0.5236
vn -0.5231 0.6728 0.5231
vn -0.5455 -0.6362 0.5456
vn 0.5228 0.6730 0.5233
vn 0.5232 0.6726 0.5233
vn 0.5455 -0.6362 0.5456
vn -0.6628 0.3481 -0.6629
vn -0.5269 -0.6668 -0.5270
vn -0.5269 -0.6666 -0.5273
vn 0.5267 -0.6669 -0.5271
vn 0.5270 -0.6667 -0.5271
vn 0.6628 0.3481 -0.6629
vn -0.6628 0.3481 0.6629
vn -0.5270 -0.6667 0.5271
vn -0.5266 -0.6670 0.5271
vn 0.6628 0.3481 0.6629
vn 0.5269 -0.6668 0.5270
vn 0.5269 -0.6666 0.5273
vn 0.1557 -0.6985 -0.6985
vn 0.1540 -0.6956 -0.7017
vn 0.3966 -0.5936 -0.7002
vn 0.5936 -0.3966 -0.7002
vn 0.6934 -0.1612 -0.7023
vn 0.6979 -0.1608 -0.6979
vn 0.5250 -0.6018 -0.6018
vn 0.1625 0.6977 -0.6977
vn 0.6653 -0.3387 -0.6653
vn 0.6732 -0.3950 -0.6251
vn -0.6400 0.4251 -0.6400
vn 0.0563 -0.7230 -0.6885
vn 0.0563 -0.7230 0.6885
vn -0.0563 0.7230 0.6885
vn -0.6401 0.4251 0.6400
vn -0.6979 0.1608 0.6979
vn -0.6942 0.1586 0.7021
vn -0.5936 0.3966 0.7002
vn -0.5936 0.3967 0.7002
vn -0.3967 0.5936 0.7002
vn -0.3966 0.5936 0.7002
vn -0.1540 0.6957 0.7016
vn -0.1538 0.6987 0.6987
vn -0.3505 -0.6284 0.6944
vn -0.3384 -0.6664 0.6643
vn 0.6531 -0.3832 0.6531
vn 0.7034 -0.3655 0.6096
vn 0.2121 0.6752 -0.7065
vn 0.3457 0.6808 -0.6457
vn -0.1546 0.6986 -0.6986
vn -0.1531 0.6959 -0.7016
vn -0.3966 0.5936 -0.7002
vn -0.5936 0.3966 -0.7002
vn -0.6938 0.1598 -0.7022
vn -0.6980 0.1595 -0.6981
vn 0.1546 -0.6986 0.6986
vn 0.1550 -0.6954 0.7017
vn 0.3966 -0.5936 0.7002
vn 0.5936 -0.3966 0.7002
vn 0.5936 -0.3967 0.7002
vn 0.6939 -0.1598 0.7022
vn 0.6977 -0.1622 0.6977
vn 0.1625 0.6977 0.6977
vn 0.5251 -0.6018 0.6018
vn -0.0563 0.7230 -0.6885
vn -0.3243 -0.6386 -0.6979
vn -0.3606 -0.6465 -0.6723
vn 0.3243 0.6386 0.6979
vn 0.2389 0.7605 0.6038
vn 0.4770 0.5546 -0.6818
vn 0.4770 0.5546 0.6818
vn -0.7449 -0.0435 0.6657
vn -0.7449 -0.0435 -0.6657
vn -0.1540 -0.6956 -0.7017
vn -0.1557 -0.6985 -0.6985
vn -0.3966 -0.5936 -0.7002
vn -0.5936 -0.3966 -0.7002
vn -0.6934 -0.1612 -0.7023
vn -0.6979 -0.1608 -0.6979
vn -0.5250 -0.6018 -0.6018
vn -0.1625 0.6977 -0.6977
vn -0.6653 -0.3387 -0.6653
vn -0.6732 -0.3950 -0.6251
vn 0.6400 0.4251 -0.6401
vn -0.0563 -0.7230 -0.6885
vn -0.0563 -0.7230 0.6885
vn 0.0563 0.7230 0.6885
vn 0.6400 0.4251 0.6400
vn 0.6979 0.1608 0.6979
vn 0.6942 0.1586 0.7021
vn 0.5936 0.3967 0.7002
vn 0.5936 0.3966 0.7002
vn 0.3966 0.5936 0.7002
vn 0.1540 0.6957 0.7016
vn 0.1538 0.6987 0.6987
vn 0.3505 -0.6284 0.6944
vn 0.3384 -0.6664 0.6643
vn -0.7034 -0.3655 0.6096
vn -0.6531 -0.3832 0.6531
vn -0.2121 0.6752 -0.7065
vn -0.3457 0.6808 -0.6457
vn -0.2389 0.7605 0.6038
vn -0.3243 0.6386 0.6979
vn 0.1531 0.6959 -0.7016
vn 0.1546 0.6986 -0.6986
vn 0.3966 0.5936 -0.7002
vn 0.5936 0.3966 -0.7002
vn 0.6938 0.1598 -0.7022
vn 0.6980 0.1595 -0.6981
vn -0.1550 -0.6954 0.7017
vn -0.1547 -0.6986 0.6986
vn -0.3966 -0.5936 0.7002
vn -0.5936 -0.3967 0.7002
vn -0.5936 -0.3966 0.7002
vn -0.6938 -0.1598 0.7022
vn -0.6977 -0.1622 0.6977
vn -0.1625 0.6977 0.6977
vn -0.5251 -0.6018 0.6018
vn 0.0563 0.7230 -0.6885
vn 0.3606 -0.6465 -0.6723
vn 0.3243 -0.6386 -0.6979
vn -0.4770 0.5546 -0.6818
vn -0.4770 0.5546 0.6818
vn 0.7449 -0.0435 0.6657
vn 0.7449 -0.0435 -0.6657
vn -0.1557 -0.6985 0.6985
vn -0.1540 -0.6957 0.7017
vn -0.6934 -0.1612 0.7023
vn -0.6979 -0.1608 0.6979
vn -0.5250 -0.6018 0.6018
vn -0.6653 -0.3387 0.6653
vn -0.6732 -0.3950 0.6251
vn -0.0563 -0.7230 0.6886
vn 0.6401 0.4251 -0.6400
vn 0.6979 0.1608 -0.6979
vn 0.6942 0.1586 -0.7021
vn 0.5936 0.3967 -0.7002
vn 0.1540 0.6957 -0.7016
vn 0.1538 0.6987 -0.6987
vn 0.3505 -0.6284 -0.6944
vn 0.3384 -0.6664 -0.6643
vn -0.6531 -0.3832 -0.6531
vn -0.7034 -0.3655 -0.6096
vn -0.2120 0.6752 0.7065
vn -0.3457 0.6808 0.6457
vn 0.1546 0.6986 0.6986
vn 0.1531 0.6959 0.7016
vn 0.6938 0.1598 0.7022
vn 0.6980 0.1595 0.6981
vn -0.1547 -0.6986 -0.6986
vn -0.1550 -0.6954 -0.7017
vn -0.6938 -0.1598 -0.7022
vn -0.6977 -0.1622 -0.6977
vn -0.5251 -0.6018 -0.6018
vn 0.3243 -0.6386 0.6979
vn 0.3606 -0.6465 0.6723
vn -0.3243 0.6385 -0.6979
vn -0.2388 0.7605 -0.6038
vn 0.1540 -0.6957 0.7017
vn 0.1557 -0.6985 0.6985
vn 0.6934 -0.1612 0.7023
vn 0.6979 -0.1608 0.6979
vn 0.5250 -0.6018 0.6018
vn 0.6653 -0.3387 0.6653
vn 0.6732 -0.3950 0.6251
vn -0.6400 0.4251 0.6401
vn 0.0563 -0.7230 0.6886
vn -0.6979 0.1608 -0.6979
vn -0.6942 0.1586 -0.7021
vn -0.1540 0.6957 -0.7016
vn -0.1538 0.6987 -0.6987
vn -0.3505 -0.6284 -0.6944
vn -0.3384 -0.6664 -0.6643
vn 0.7034 -0.3655 -0.6096
vn 0.6531 -0.3832 -0.6531
vn 0.2120 0.6752 0.7065
vn 0.3457 0.6808 0.6457
vn 0.2388 0.7605 -0.6038
vn 0.3243 0.6386 -0.6979
vn -0.1531 0.6959 0.7016
vn -0.1546 0.6986 0.6986
vn -0.6938 0.1598 0.7022
vn -0.6980 0.1595 0.6981
vn 0.1550 -0.6954 -0.7017
vn 0.1547 -0.6986 -0.6986
vn 0.6938 -0.1598 -0.7022
vn 0.6977 -0.1622 -0.6977
vn 0.5251 -0.6018 -0.6018
vn -0.3606 -0.6465 0.6723
vn -0.3243 -0.6386 0.6979
vn -0.6729 -0.5229 -0.5232
vn -0.6727 -0.5232 -0.5232
vn -0.6728 0.5231 -0.5231
vn -0.6725 0.5231 -0.5235
vn 0.6362 -0.5456 -0.5456
vn 0.6362 0.5456 -0.5456
vn -0.6725 -0.5231 0.5235
vn -0.6728 -0.5231 0.5231
vn 0.6362 -0.5456 0.5456
vn -0.6730 0.5228 0.5232
vn -0.6726 0.5232 0.5233
vn 0.6362 0.5456 0.5456
vn -0.3481 -0.6628 -0.6629
vn 0.6668 -0.5269 -0.5270
vn 0.6666 -0.5269 -0.5272
vn 0.6669 0.5267 -0.5271
vn 0.6667 0.5270 -0.5271
vn -0.3481 0.6628 -0.6629
vn -0.3481 -0.6628 0.6629
vn 0.6667 -0.5270 0.5271
vn 0.6670 -0.5266 0.5271
vn -0.3481 0.6628 0.6629
vn 0.6668 0.5269 0.5270
vn 0.6666 0.5269 0.5273
vn -0.8012 0.2670 0.5355
vn -0.8012 0.2676 0.5352
vn -0.5351 0.2669 0.8015
vn -0.5352 0.2676 0.8012
vn -0.1883 0.2676 0.9449
vn -0.1883 0.2674 0.9450
vn -0.9451 0.2674 0.1879
vn -0.9451 0.2673 0.1880
vn -0.9451 0.2673 -0.1880
vn -0.9451 0.2672 -0.1880
vn -0.8014 0.2670 -0.5353
vn -0.8011 0.2677 -0.5354
vn -0.5352 0.2679 -0.8011
vn -0.5353 0.2676 -0.8011
vn -0.1878 0.2676 -0.9450
vn -0.1880 0.2673 -0.9451
vn 0.1878 0.2673 -0.9451
vn 0.1879 0.2676 -0.9450
vn 0.5352 0.2676 -0.8012
vn 0.5353 0.2679 -0.8011
vn 0.8012 0.2677 -0.5351
vn 0.8012 0.2669 -0.5355
vn 0.9451 0.2672 -0.1880
vn 0.9451 0.2673 -0.1880
vn 0.9451 0.2673 0.1879
vn 0.9451 0.2674 0.1880
vn 0.8011 0.2676 0.5354
vn 0.8014 0.2670 0.5353
vn 0.5353 0.2669 0.8014
vn 0.5350 0.2676 0.8013
vn 0.1882 0.2676 0.9450
vn 0.1884 0.2674 0.9450
vn 0.8013 0.2670 -0.5354
vn 0.8013 0.2669 -0.5355
vn 0.5353 0.2669 -0.8014
vn 0.5354 0.2675 -0.8011
vn 0.1882 0.2675 -0.9450
vn 0.1882 0.2673 -0.9451
vn 0.9451 0.2673 -0.1879
vn 0.9451 0.2673 0.1880
vn 0.8011 0.2676 0.5353
vn 0.5355 0.2669 0.8012
vn 0.5352 0.2676 0.8012
vn 0.1878 0.2676 0.9451
vn 0.1878 0.2674 0.9451
vn -0.1878 0.2674 0.9451
vn -0.1878 0.2676 0.9450
vn -0.5354 0.2676 0.8011
vn -0.5353 0.2669 0.8014
vn -0.8013 0.2670 0.5354
vn -0.8012 0.2677 0.5352
vn -0.9451 0.2674 0.1880
vn -0.8013 0.2669 -0.5354
vn -0.8012 0.2670 -0.5355
vn -0.5355 0.2669 -0.8013
vn -0.5352 0.2675 -0.8012
vn -0.1882 0.2675 -0.9450
vn -0.1883 0.2673 -0.9451
vn 0.6729 0.5229 -0.5232
vn 0.6727 0.5232 -0.5232
vn 0.6728 -0.5231 -0.5231
vn 0.6725 -0.5231 -0.5235
vn -0.6362 0.5456 -0.5456
vn -0.6362 -0.5456 -0.5456
vn 0.6725 0.5231 0.5235
vn 0.6728 0.5231 0.5231
vn -0.6362 0.5456 0.5456
vn 0.6730 -0.5228 0.5232
vn 0.6726 -0.5232 0.5233
vn -0.6362 -0.5456 0.5456
vn 0.3481 0.6628 -0.6629
vn -0.6668 0.5269 -0.5270
vn -0.6666 0.5269 -0.5272
vn -0.6669 -0.5267 -0.5271
vn -0.6667 -0.5269 -0.5271
vn 0.3481 -0.6628 -0.6629
vn 0.3481 0.6628 0.6629
vn -0.6667 0.5269 0.5271
vn -0.6670 0.5266 0.5271
vn 0.3481 -0.6628 0.6629
vn -0.6668 -0.5269 0.5270
vn -0.6666 -0.5269 0.5273
vn -0.1170 0.5880 0.8004
vn -0.3330 0.4984 0.8004
vn -0.3331 0.4985 0.8004
vn -0.4984 0.3330 0.8004
vn -0.4985 0.3331 0.8004
vn -0.5880 0.1170 0.8004
vn -0.1170 0.5880 -0.8004
vn -0.3331 0.4985 -0.8004
vn -0.3331 0.4985 -0.8003
vn -0.4985 0.3331 -0.8004
vn -0.5880 0.1170 -0.8004
vn -0.1170 -0.5880 0.8004
vn -0.3331 -0.4984 0.8004
vn -0.3331 -0.4985 0.8004
vn -0.4985 -0.3331 0.8004
vn -0.4984 -0.3331 0.8004
vn -0.5880 -0.1170 0.8004
vn -0.1170 -0.5880 -0.8004
vn -0.3331 -0.4985 -0.8004
vn -0.4985 -0.3331 -0.8004
vn -0.5880 -0.1170 -0.8004
vn 0.1170 0.5880 0.8004
vn 0.3330 0.4984 0.8004
vn 0.3331 0.4985 0.8004
vn 0.4985 0.3331 0.8004
vn 0.4984 0.3331 0.8004
vn 0.5880 0.1170 0.8004
vn 0.1170 0.5880 -0.8004
vn 0.3331 0.4985 -0.8004
vn 0.4985 0.3331 -0.8004
vn 0.5880 0.1170 -0.8004
vn 0.1170 -0.5880 0.8004
vn 0.3331 -0.4984 0.8004
vn 0.4984 -0.3331 0.8004
vn 0.4985 -0.3331 0.8004
vn 0.5880 -0.1170 0.8004
vn 0.1170 -0.5880 -0.8004
vn 0.3331 -0.4985 -0.8004
vn 0.4985 -0.3331 -0.8004
vn 0.5880 -0.1170 -0.8004
vn 0.0465 0.8808 0.4713
vn 0.0464 0.8809 0.4710
vn 0.1375 0.8808 0.4532
vn 0.1375 0.8807 0.4532
vn 0.1983 0.8815 0.4285
vn -0.0409 0.9988 0.0273
vn -0.0000 1.0000 0.0000
vn -0.0464 0.8809 -0.4710
vn -0.0464 0.8811 -0.4707
vn -0.1373 0.8810 -0.4527
vn -0.2474 0.8796 -0.4063
vn 0.0273 0.9988 -0.0409
vn 0.4281 0.8817 0.1981
vn 0.4529 0.8809 0.1374
vn 0.4528 0.8810 0.1374
vn 0.4710 0.8809 0.0464
vn -0.4529 0.8809 -0.1374
vn -0.4064 0.8795 -0.2475
vn -0.4530 0.8809 -0.1374
vn -0.4710 0.8809 -0.0464
vn 0.0980 0.0000 0.9952
vn 0.2903 0.0000 0.9569
vn 0.4201 0.0000 0.9075
vn 0.6343 0.0000 0.7731
vn 0.7730 0.0000 0.6343
vn 0.9075 0.0000 0.4200
vn 0.9569 0.0000 0.2903
vn 0.9952 0.0000 0.0980
vn -0.0981 0.0000 -0.9952
vn -0.2903 0.0000 -0.9569
vn -0.5201 0.0000 -0.8541
vn -0.6344 0.0000 -0.7730
vn -0.7731 0.0000 -0.6343
vn -0.8541 0.0000 -0.5201
vn -0.9569 0.0000 -0.2903
vn -0.9952 0.0000 -0.0980
vn -0.0464 0.8809 0.4710
vn -0.0465 0.8808 0.4713
vn -0.1375 0.8808 0.4532
vn -0.1375 0.8807 0.4532
vn -0.1983 0.8815 0.4285
vn 0.0409 0.9988 0.0273
vn 0.0464 0.8809 -0.4710
vn 0.0464 0.8811 -0.4707
vn 0.1373 0.8810 -0.4527
vn 0.2474 0.8796 -0.4063
vn -0.0273 0.9988 -0.0409
vn -0.4281 0.8817 0.1981
vn -0.4529 0.8809 0.1374
vn -0.4528 0.8810 0.1374
vn -0.4710 0.8809 0.0464
vn 0.4529 0.8809 -0.1374
vn 0.4064 0.8795 -0.2475
vn 0.4530 0.8809 -0.1374
vn 0.4710 0.8809 -0.0464
vn -0.0980 0.0000 0.9952
vn -0.2903 0.0000 0.9569
vn -0.4201 0.0000 0.9075
vn -0.6343 0.0000 0.7731
vn -0.7730 0.0000 0.6343
vn -0.9075 0.0000 0.4200
vn -0.9569 0.0000 0.2903
vn -0.9952 0.0000 0.0980
vn 0.0981 0.0000 -0.9952
vn 0.2903 0.0000 -0.9569
vn 0.5201 0.0000 -0.8541
vn 0.6344 0.0000 -0.7730
vn 0.7731 0.0000 -0.6343
vn 0.8541 0.0000 -0.5201
vn 0.9569 0.0000 -0.2903
vn 0.9952 0.0000 -0.0980
vn 0.0463 0.8811 -0.4707
vn 0.1373 0.8811 -0.4527
vn 0.1981 0.8818 -0.4280
vn -0.0409 0.9988 -0.0273
vn -0.0464 0.8808 0.4713
vn -0.1373 0.8810 0.4528
vn -0.2474 0.8796 0.4064
vn 0.0273 0.9988 0.0409
vn 0.4282 0.8817 -0.1982
vn -0.4064 0.8795 0.2475
vn 0.0980 0.0000 -0.9952
vn 0.4200 0.0000 -0.9075
vn 0.7730 0.0000 -0.6344
vn 0.9075 0.0000 -0.4200
vn -0.0981 0.0000 0.9952
vn -0.2902 0.0000 0.9570
vn -0.5201 0.0000 0.8541
vn -0.6344 0.0000 0.7730
vn -0.7730 0.0000 0.6344
vn -0.8541 0.0000 0.5201
vn -0.0463 0.8811 -0.4707
vn -0.1373 0.8811 -0.4527
vn -0.1981 0.8818 -0.4280
vn 0.0409 0.9988 -0.0273
vn 0.0464 0.8808 0.4713
vn 0.1373 0.8810 0.4528
vn 0.2474 0.8796 0.4064
vn -0.0273 0.9988 0.0409
vn -0.4281 0.8817 -0.1981
vn 0.4064 0.8795 0.2475
vn -0.0980 0.0000 -0.9952
vn -0.4200 0.0000 -0.9075
vn -0.7730 0.0000 -0.6344
vn -0.9075 0.0000 -0.4200
vn 0.0981 0.0000 0.9952
vn 0.2902 0.0000 0.9570
vn 0.5201 0.0000 0.8541
vn 0.6344 0.0000 0.7730
vn 0.7730 0.0000 0.6344
vn 0.8541 0.0000 0.5201
usemtl chaos_gate
s off
f 1/1/1 2/2/1 3/3/1
f 4/4/2 1/1/2 3/3/2
f 3/3/3 2/2/3 5/5/3
f 2/2/4 6/6/4 5/5/4
f 3/3/5 7/7/5 4/4/5
f 5/5/6 7/7/6 3/3/6
f 8/8/7 9/9/7 10/10/7
f 11/11/8 8/8/8 10/10/8
f 10/10/9 12/12/9 11/11/9
f 13/13/10 14/14/10 15/15/10
f 16/16/11 13/13/11 15/15/11
f 15/15/12 17/17/12 16/16/12
f 18/18/13 19/19/13 20/20/13
f 18/18/14 20/20/14 21/21/14
f 22/22/15 18/18/15 21/21/15
f 21/21/16 20/20/16 23/23/16
f 20/20/17 24/24/17 23/23/17
f 20/20/18 25/25/18 24/24/18
f 26/26/19 27/27/19 28/28/19
f 26/26/20 28/28/20 29/29/20
f 30/30/21 26/26/21 29/29/21
f 31/31/22 32/32/22 33/33/22
f 31/31/23 33/33/23 34/34/23
f 35/35/24 31/31/24 34/34/24
f 36/36/25 37/37/25 38/38/25
f 39/39/26 36/36/26 38/38/26
f 38/38/27 37/37/27 40/40/27
f 37/37/28 41/41/28 40/40/28
f 38/38/29 42/42/29 39/39/29
f 40/40/30 42/42/30 38/38/30
f 43/43/31 44/44/31 45/45/31
f 46/46/32 43/43/32 45/45/32
f 45/45/33 47/47/33 46/46/33
f 48/48/34 49/49/34 50/50/34
f 51/51/35 48/48/35 50/50/35
f 50/50/36 52/52/36 51/51/36
f 53/53/37 54/54/37 55/55/37
f 53/53/38 55/55/38 56/56/38
f 57/57/39 53/53/39 56/56/39
f 56/56/40 55/55/40 58/58/40
f 55/55/41 59/59/41 58/58/41
f 55/55/42 60/60/42 59/59/42
f 61/61/43 62/62/43 63/63/43
f 61/61/44 63/63/44 64/64/44
f 65/65/45 61/61/45 64/64/45
f 66/66/46 67/67/46 68/68/46
f 66/66/47 68/68/47 69/69/47
f 70/70/48 66/66/48 69/69/48
f 71/71/49 72/72/49 73/73/49
f 74/74/50 71/71/50 73/73/50
f 74/74/51 73/73/51 75/75/51
f 76/76/51 74/74/51 75/75/51
f 76/76/52 75/75/52 77/77/52
f 78/78/52 76/76/52 77/77/52
f 78/78/53 77/77/53 79/79/53
f 80/80/54 78/78/54 79/79/54
f 71/71/55 81/81/55 72/72/55
f 81/81/56 71/71/56 82/82/56
f 83/83/57 80/80/57 79/79/57
f 84/84/58 83/83/58 79/79/58
f 83/83/59 85/85/59 80/80/59
f 86/86/60 83/83/60 84/84/60
f 87/87/60 86/86/60 84/84/60
f 87/87/61 84/84/61 88/88/61
f 89/89/61 87/87/61 88/88/61
f 89/89/62 88/88/62 90/90/62
f 88/88/63 91/91/63 90/90/63
f 91/91/64 92/92/64 90/90/64
f 92/92/65 93/93/65 90/90/65
f 92/92/66 94/94/66 93/93/66
f 94/94/67 95/95/67 93/93/67
f 94/94/68 96/96/68 95/95/68
f 96/96/69 97/97/69 95/95/69
f 96/96/70 98/98/70 97/97/70
f 98/98/71 99/99/71 97/97/71
f 100/100/72 87/87/72 89/89/72
f 101/101/73 100/100/73 89/89/73
f 102/102/74 103/103/74 91/91/74
f 104/104/75 102/102/75 91/91/75
f 105/105/76 90/90/76 106/106/76
f 107/107/77 105/105/77 106/106/77
f 108/108/78 109/109/78 110/110/78
f 111/111/79 108/108/79 110/110/79
f 111/111/80 110/110/80 112/112/80
f 113/113/80 111/111/80 112/112/80
f 113/113/81 112/112/81 114/114/81
f 115/115/81 113/113/81 114/114/81
f 115/115/82 114/114/82 116/116/82
f 117/117/83 115/115/83 116/116/83
f 118/118/84 119/119/84 120/120/84
f 121/121/85 118/118/85 120/120/85
f 121/121/86 120/120/86 122/122/86
f 123/123/86 121/121/86 122/122/86
f 123/123/87 122/122/87 124/124/87
f 125/125/88 123/123/88 124/124/88
f 125/125/89 124/124/89 126/126/89
f 127/127/90 125/125/90 126/126/90
f 128/128/91 129/129/91 130/130/91
f 131/131/92 132/132/92 133/133/92
f 134/134/93 135/135/93 136/136/93
f 137/137/94 138/138/94 139/139/94
f 140/140/95 137/137/95 139/139/95
f 141/141/96 142/142/96 90/90/96
f 143/143/97 141/141/97 90/90/97
f 144/144/98 145/145/98 146/146/98
f 147/147/99 148/148/99 149/149/99
f 150/150/100 151/151/100 152/152/100
f 153/153/101 154/154/101 155/155/101
f 156/156/102 157/157/102 158/158/102
f 159/159/103 156/156/103 158/158/103
f 158/158/104 157/157/104 160/160/104
f 157/157/104 161/161/104 160/160/104
f 160/160/105 161/161/105 162/162/105
f 161/161/105 163/163/105 162/162/105
f 162/162/106 163/163/106 164/164/106
f 163/163/107 165/165/107 164/164/107
f 166/166/108 156/156/108 159/159/108
f 156/156/109 166/166/109 167/167/109
f 165/165/110 168/168/110 164/164/110
f 168/168/111 169/169/111 164/164/111
f 170/170/112 168/168/112 165/165/112
f 168/168/113 171/171/113 169/169/113
f 171/171/113 172/172/113 169/169/113
f 169/169/114 172/172/114 173/173/114
f 172/172/114 174/174/114 173/173/114
f 173/173/115 174/174/115 175/175/115
f 176/176/116 173/173/116 175/175/116
f 177/177/117 176/176/117 175/175/117
f 178/178/118 177/177/118 175/175/118
f 179/179/119 177/177/119 178/178/119
f 180/180/120 179/179/120 178/178/120
f 181/181/121 179/179/121 180/180/121
f 182/182/121 181/181/121 180/180/121
f 183/183/122 181/181/122 182/182/122
f 184/184/123 183/183/123 182/182/123
f 172/172/124 185/185/124 174/174/124
f 185/185/125 186/186/125 174/174/125
f 187/187/126 188/188/126 176/176/126
f 189/189/127 187/187/127 176/176/127
f 175/175/128 190/190/128 191/191/128
f 190/190/129 192/192/129 191/191/129
f 193/193/130 194/194/130 175/175/130
f 195/195/131 193/193/131 175/175/131
f 196/196/132 197/197/132 198/198/132
f 199/199/133 196/196/133 198/198/133
f 198/198/134 197/197/134 200/200/134
f 197/197/134 201/201/134 200/200/134
f 200/200/135 201/201/135 202/202/135
f 201/201/135 203/203/135 202/202/135
f 202/202/136 203/203/136 204/204/136
f 203/203/137 205/205/137 204/204/137
f 206/206/138 207/207/138 208/208/138
f 209/209/139 206/206/139 208/208/139
f 208/208/140 207/207/140 210/210/140
f 207/207/140 211/211/140 210/210/140
f 210/210/141 211/211/141 212/212/141
f 211/211/142 213/213/142 212/212/142
f 212/212/143 213/213/143 214/214/143
f 213/213/144 215/215/144 214/214/144
f 216/216/145 217/217/145 218/218/145
f 219/219/146 220/220/146 221/221/146
f 222/222/147 223/223/147 224/224/147
f 225/225/148 226/226/148 227/227/148
f 228/228/149 225/225/149 227/227/149
f 229/229/150 230/230/150 231/231/150
f 232/232/151 233/233/151 234/234/151
f 235/235/152 236/236/152 237/237/152
f 238/238/153 239/239/153 240/240/153
f 241/241/154 242/242/154 243/243/154
f 244/244/155 241/241/155 243/243/155
f 244/244/140 243/243/140 245/245/140
f 246/246/140 244/244/140 245/245/140
f 246/246/142 245/245/142 247/247/142
f 248/248/142 246/246/142 247/247/142
f 248/248/156 247/247/156 249/249/156
f 250/250/157 248/248/157 249/249/157
f 241/241/158 251/251/158 242/242/158
f 251/251/145 241/241/145 252/252/145
f 253/253/159 250/250/159 249/249/159
f 254/254/160 253/253/160 249/249/160
f 253/253/116 255/255/116 250/250/116
f 256/256/161 253/253/161 254/254/161
f 257/257/114 256/256/114 254/254/114
f 257/257/113 254/254/113 258/258/113
f 259/259/113 257/257/113 258/258/113
f 259/259/147 258/258/147 260/260/147
f 258/258/162 261/261/162 260/260/162
f 261/261/163 262/262/163 260/260/163
f 262/262/164 263/263/164 260/260/164
f 262/262/135 264/264/135 263/263/135
f 264/264/165 265/265/165 263/263/165
f 264/264/134 266/266/134 265/265/134
f 266/266/134 267/267/134 265/265/134
f 266/266/166 268/268/166 267/267/166
f 268/268/167 269/269/167 267/267/167
f 270/270/168 257/257/168 259/259/168
f 271/271/169 270/270/169 259/259/169
f 272/272/170 273/273/170 261/261/170
f 274/274/171 272/272/171 261/261/171
f 275/275/172 260/260/172 276/276/172
f 277/277/173 275/275/173 276/276/173
f 278/278/174 279/279/174 280/280/174
f 281/281/175 278/278/175 280/280/175
f 281/281/121 280/280/121 282/282/121
f 283/283/121 281/281/121 282/282/121
f 283/283/120 282/282/120 284/284/120
f 285/285/120 283/283/120 284/284/120
f 285/285/176 284/284/176 286/286/176
f 287/287/177 285/285/177 286/286/177
f 288/288/178 289/289/178 290/290/178
f 291/291/179 288/288/179 290/290/179
f 291/291/104 290/290/104 292/292/104
f 293/293/104 291/291/104 292/292/104
f 293/293/105 292/292/105 294/294/105
f 295/295/105 293/293/105 294/294/105
f 295/295/180 294/294/180 296/296/180
f 297/297/181 295/295/181 296/296/181
f 298/298/109 299/299/109 300/300/109
f 301/301/182 302/302/182 303/303/182
f 304/304/115 305/305/115 306/306/115
f 307/307/183 308/308/183 309/309/183
f 310/310/184 307/307/184 309/309/184
f 311/311/185 312/312/185 260/260/185
f 313/313/186 311/311/186 260/260/186
f 314/314/151 315/315/151 316/316/151
f 317/317/150 318/318/150 319/319/150
f 320/320/153 321/321/153 322/322/153
f 323/323/152 324/324/152 325/325/152
f 326/326/187 327/327/187 328/328/187
f 329/329/188 326/326/188 328/328/188
f 328/328/86 327/327/86 330/330/86
f 327/327/86 331/331/86 330/330/86
f 330/330/87 331/331/87 332/332/87
f 331/331/87 333/333/87 332/332/87
f 332/332/189 333/333/189 334/334/189
f 333/333/190 335/335/190 334/334/190
f 336/336/191 326/326/191 329/329/191
f 326/326/91 336/336/91 337/337/91
f 335/335/192 338/338/192 334/334/192
f 338/338/193 339/339/193 334/334/193
f 340/340/194 338/338/194 335/335/194
f 338/338/195 341/341/195 339/339/195
f 341/341/61 342/342/61 339/339/61
f 339/339/60 342/342/60 343/343/60
f 342/342/60 344/344/60 343/343/60
f 343/343/93 344/344/93 345/345/93
f 346/346/59 343/343/59 345/345/59
f 347/347/196 346/346/196 345/345/196
f 348/348/197 347/347/197 345/345/197
f 349/349/81 347/347/81 348/348/81
f 350/350/81 349/349/81 348/348/81
f 351/351/80 349/349/80 350/350/80
f 352/352/80 351/351/80 350/350/80
f 353/353/198 351/351/198 352/352/198
f 354/354/199 353/353/199 352/352/199
f 342/342/200 355/355/200 344/344/200
f 355/355/201 356/356/201 344/344/201
f 357/357/202 358/358/202 346/346/202
f 359/359/203 357/357/203 346/346/203
f 345/345/204 360/360/204 361/361/204
f 360/360/205 362/362/205 361/361/205
f 363/363/206 364/364/206 345/345/206
f 365/365/207 363/363/207 345/345/207
f 366/366/208 367/367/208 368/368/208
f 369/369/209 366/366/209 368/368/209
f 368/368/69 367/367/69 370/370/69
f 367/367/69 371/371/69 370/370/69
f 370/370/66 371/371/66 372/372/66
f 371/371/66 373/373/66 372/372/66
f 372/372/210 373/373/210 374/374/210
f 373/373/211 375/375/211 374/374/211
f 376/376/212 377/377/212 378/378/212
f 379/379/213 376/376/213 378/378/213
f 378/378/51 377/377/51 380/380/51
f 377/377/51 381/381/51 380/380/51
f 380/380/52 381/381/52 382/382/52
f 381/381/52 383/383/52 382/382/52
f 382/382/214 383/383/214 384/384/214
f 383/383/215 385/385/215 384/384/215
f 386/386/56 387/387/56 388/388/56
f 389/389/216 390/390/216 391/391/216
f 392/392/62 393/393/62 394/394/62
f 395/395/217 396/396/217 397/397/217
f 398/398/218 395/395/218 397/397/218
f 399/399/99 400/400/99 401/401/99
f 402/402/98 403/403/98 404/404/98
f 405/405/101 406/406/101 407/407/101
f 408/408/100 409/409/100 410/410/100
f 411/411/219 412/412/219 413/413/219
f 414/414/220 411/411/220 413/413/220
f 413/413/221 412/412/221 415/415/221
f 412/412/222 416/416/222 415/415/222
f 413/413/223 417/417/223 414/414/223
f 415/415/224 417/417/224 413/413/224
f 418/418/225 419/419/225 420/420/225
f 421/421/226 418/418/226 420/420/226
f 420/420/227 422/422/227 421/421/227
f 423/423/228 424/424/228 425/425/228
f 426/426/229 423/423/229 425/425/229
f 425/425/230 427/427/230 426/426/230
f 428/428/231 429/429/231 430/430/231
f 428/428/232 430/430/232 431/431/232
f 432/432/233 428/428/233 431/431/233
f 431/431/234 430/430/234 433/433/234
f 430/430/235 434/434/235 433/433/235
f 430/430/236 435/435/236 434/434/236
f 436/436/237 437/437/237 438/438/237
f 436/436/238 438/438/238 439/439/238
f 440/440/239 436/436/239 439/439/239
f 441/441/240 442/442/240 443/443/240
f 441/441/241 443/443/241 444/444/241
f 445/445/242 441/441/242 444/444/242
f 446/446/243 447/447/243 448/448/243
f 449/449/244 446/446/244 448/448/244
f 448/448/245 447/447/245 450/450/245
f 447/447/246 451/451/246 450/450/246
f 450/450/247 451/451/247 452/452/247
f 451/451/248 453/453/248 452/452/248
f 454/454/249 446/446/249 449/449/249
f 455/455/250 454/454/250 449/449/250
f 456/456/251 454/454/251 455/455/251
f 457/457/252 456/456/252 455/455/252
f 458/458/253 456/456/253 457/457/253
f 459/459/254 458/458/254 457/457/254
f 460/460/255 458/458/255 459/459/255
f 461/461/256 460/460/256 459/459/256
f 462/462/257 460/460/257 461/461/257
f 463/463/258 462/462/258 461/461/258
f 464/464/259 462/462/259 463/463/259
f 465/465/260 464/464/260 463/463/260
f 466/466/261 464/464/261 465/465/261
f 467/467/262 466/466/262 465/465/262
f 468/468/263 466/466/263 467/467/263
f 469/469/264 468/468/264 467/467/264
f 470/470/265 468/468/265 469/469/265
f 471/471/266 470/470/266 469/469/266
f 472/472/267 470/470/267 471/471/267
f 473/473/268 472/472/268 471/471/268
f 474/474/269 472/472/269 473/473/269
f 475/475/270 474/474/270 473/473/270
f 476/476/271 474/474/271 475/475/271
f 477/477/272 476/476/272 475/475/272
f 478/478/273 476/476/273 477/477/273
f 479/479/274 478/478/274 477/477/274
f 480/480/275 481/481/275 482/482/275
f 483/483/276 480/480/276 482/482/276
f 482/482/277 481/481/277 484/484/277
f 481/481/278 485/485/278 484/484/278
f 484/484/279 485/485/279 486/486/279
f 485/485/280 487/487/280 486/486/280
f 488/488/265 480/480/265 483/483/265
f 489/489/281 488/488/281 483/483/281
f 490/490/282 488/488/282 489/489/282
f 491/491/268 490/490/268 489/489/268
f 492/492/283 490/490/283 491/491/283
f 493/493/270 492/492/270 491/491/270
f 494/494/284 492/492/284 493/493/284
f 495/495/285 494/494/285 493/493/285
f 496/496/286 494/494/286 495/495/286
f 497/497/287 496/496/287 495/495/287
f 498/498/288 496/496/288 497/497/288
f 499/499/289 498/498/289 497/497/289
f 500/500/290 498/498/290 499/499/290
f 501/501/291 500/500/291 499/499/291
f 502/502/292 500/500/292 501/501/292
f 503/503/293 502/502/293 501/501/293
f 504/504/294 502/502/294 503/503/294
f 505/505/250 504/504/250 503/503/250
f 506/506/251 504/504/251 505/505/251
f 507/507/252 506/506/252 505/505/252
f 508/508/295 506/506/295 507/507/295
f 509/509/296 508/508/296 507/507/296
f 510/510/297 508/508/297 509/509/297
f 511/511/298 510/510/298 509/509/298
f 512/512/299 510/510/299 511/511/299
f 513/513/300 512/512/300 511/511/300
f 514/514/301 515/515/301 516/516/301
f 517/517/302 514/514/302 516/516/302
f 516/516/303 515/515/303 518/518/303
f 515/515/304 519/519/304 518/518/304
f 516/516/305 520/520/305 517/517/305
f 518/518/306 520/520/306 516/516/306
f 521/521/307 522/522/307 523/523/307
f 524/524/308 521/521/308 523/523/308
f 523/523/309 525/525/309 524/524/309
f 526/526/310 527/527/310 528/528/310
f 529/529/311 526/526/311 528/528/311
f 528/528/312 530/530/312 529/529/312
f 531/531/313 532/532/313 533/533/313
f 531/531/314 533/533/314 534/534/314
f 535/535/315 531/531/315 534/534/315
f 534/534/316 533/533/316 536/536/316
f 533/533/317 537/537/317 536/536/317
f 533/533/318 538/538/318 537/537/318
f 539/539/319 540/540/319 541/541/319
f 539/539/320 541/541/320 542/542/320
f 543/543/321 539/539/321 542/542/321
f 544/544/322 545/545/322 546/546/322
f 544/544/323 546/546/323 547/547/323
f 548/548/324 544/544/324 547/547/324
f 549/549/325 550/550/325 551/551/325
f 552/552/325 549/549/325 551/551/325
f 551/551/326 550/550/326 553/553/326
f 550/550/327 554/554/327 553/553/327
f 555/555/328 556/556/328 557/557/328
f 558/558/329 555/555/329 557/557/329
f 557/557/330 556/556/330 559/559/330
f 556/556/330 560/560/330 559/559/330
f 561/561/331 562/562/331 563/563/331
f 564/564/331 561/561/331 563/563/331
f 563/563/332 562/562/332 565/565/332
f 562/562/333 566/566/333 565/565/333
f 567/567/334 568/568/334 569/569/334
f 570/570/334 567/567/334 569/569/334
f 569/569/335 568/568/335 571/571/335
f 568/568/335 572/572/335 571/571/335
f 573/573/336 574/574/336 575/575/336
f 576/576/336 573/573/336 575/575/336
f 576/576/337 575/575/337 577/577/337
f 578/578/338 576/576/338 577/577/338
f 579/579/339 580/580/339 581/581/339
f 582/582/340 579/579/340 581/581/340
f 582/582/341 581/581/341 583/583/341
f 584/584/341 582/582/341 583/583/341
f 585/585/342 586/586/342 587/587/342
f 588/588/342 585/585/342 587/587/342
f 588/588/343 587/587/343 589/589/343
f 590/590/343 588/588/343 589/589/343
f 591/591/344 592/592/344 593/593/344
f 594/594/344 591/591/344 593/593/344
f 594/594/345 593/593/345 595/595/345
f 596/596/345 594/594/345 595/595/345
f 597/597/346 598/598/346 599/599/346
f 600/600/346 597/597/346 599/599/346
f 600/600/347 599/599/347 601/601/347
f 602/602/348 600/600/348 601/601/348
f 603/603/349 604/604/349 605/605/349
f 606/606/350 603/603/350 605/605/350
f 606/606/351 605/605/351 607/607/351
f 608/608/351 606/606/351 607/607/351
f 609/609/352 610/610/352 611/611/352
f 612/612/352 609/609/352 611/611/352
f 612/612/353 611/611/353 613/613/353
f 614/614/353 612/612/353 613/613/353
f 615/615/354 616/616/354 617/617/354
f 618/618/354 615/615/354 617/617/354
f 618/618/355 617/617/355 619/619/355
f 620/620/355 618/618/355 619/619/355
f 621/621/356 622/622/356 623/623/356
f 624/624/356 621/621/356 623/623/356
f 623/623/357 622/622/357 625/625/357
f 622/622/357 626/626/357 625/625/357
f 627/627/358 628/628/358 629/629/358
f 630/630/359 627/627/359 629/629/359
f 629/629/360 628/628/360 631/631/360
f 628/628/360 632/632/360 631/631/360
f 633/633/361 634/634/361 635/635/361
f 636/636/361 633/633/361 635/635/361
f 635/635/362 634/634/362 637/637/362
f 634/634/362 638/638/362 637/637/362
f 639/639/363 640/640/363 641/641/363
f 642/642/363 639/639/363 641/641/363
f 641/641/364 640/640/364 643/643/364
f 640/640/364 644/644/364 643/643/364
f 645/645/365 646/646/365 647/647/365
f 648/648/366 645/645/366 647/647/366
f 647/647/367 646/646/367 649/649/367
f 646/646/368 650/650/368 649/649/368
f 651/651/369 649/649/369 650/650/369
f 652/652/370 651/651/370 650/650/370
f 651/651/371 652/652/371 653/653/371
f 652/652/371 654/654/371 653/653/371
f 645/645/372 655/655/372 646/646/372
f 655/655/373 656/656/373 646/646/373
f 646/646/374 656/656/374 650/650/374
f 656/656/374 657/657/374 650/650/374
f 650/650/375 657/657/375 652/652/375
f 658/658/371 659/659/371 660/660/371
f 661/661/371 658/658/371 660/660/371
f 659/659/376 662/662/376 660/660/376
f 662/662/377 663/663/377 660/660/377
f 663/663/378 662/662/378 664/664/378
f 662/662/379 665/665/379 664/664/379
f 664/664/380 665/665/380 666/666/380
f 665/665/380 667/667/380 666/666/380
f 662/662/381 668/668/381 665/665/381
f 659/659/382 668/668/382 662/662/382
f 668/668/383 669/669/383 665/665/383
f 665/665/384 669/669/384 667/667/384
f 669/669/384 670/670/384 667/667/384
f 671/671/385 672/672/385 673/673/385
f 674/674/385 671/671/385 673/673/385
f 675/675/386 676/676/386 677/677/386
f 678/678/386 675/675/386 677/677/386
f 679/679/387 675/675/387 678/678/387
f 680/680/387 679/679/387 678/678/387
f 681/681/388 679/679/388 680/680/388
f 682/682/388 681/681/388 680/680/388
f 683/683/389 684/684/389 685/685/389
f 686/686/389 683/683/389 685/685/389
f 687/687/390 683/683/390 686/686/390
f 688/688/390 687/687/390 686/686/390
f 689/689/391 687/687/391 688/688/391
f 690/690/391 689/689/391 688/688/391
f 691/691/392 689/689/392 690/690/392
f 692/692/392 691/691/392 690/690/392
f 693/693/393 694/694/393 695/695/393
f 696/696/393 693/693/393 695/695/393
f 695/695/394 694/694/394 697/697/394
f 694/694/394 698/698/394 697/697/394
f 697/697/395 698/698/395 699/699/395
f 698/698/395 700/700/395 699/699/395
f 701/701/396 702/702/396 703/703/396
f 704/704/396 701/701/396 703/703/396
f 705/705/397 706/706/397 707/707/397
f 708/708/397 705/705/397 707/707/397
f 707/707/398 706/706/398 709/709/398
f 706/706/398 710/710/398 709/709/398
f 709/709/399 710/710/399 711/711/399
f 710/710/399 712/712/399 711/711/399
f 711/711/400 712/712/400 713/713/400
f 712/712/400 714/714/400 713/713/400
f 715/715/401 716/716/401 717/717/401
f 718/718/402 715/715/402 717/717/402
f 718/718/403 717/717/403 719/719/403
f 720/720/404 718/718/404 719/719/404
f 719/719/405 721/721/405 720/720/405
f 721/721/406 722/722/406 720/720/406
f 722/722/371 721/721/371 723/723/371
f 724/724/371 722/722/371 723/723/371
f 725/725/407 715/715/407 718/718/407
f 726/726/408 725/725/408 718/718/408
f 726/726/409 718/718/409 720/720/409
f 727/727/409 726/726/409 720/720/409
f 727/727/410 720/720/410 722/722/410
f 728/728/371 729/729/371 730/730/371
f 731/731/371 728/728/371 730/730/371
f 732/732/411 731/731/411 730/730/411
f 733/733/412 732/732/412 730/730/412
f 732/732/413 733/733/413 734/734/413
f 735/735/414 732/732/414 734/734/414
f 735/735/415 734/734/415 736/736/415
f 737/737/415 735/735/415 736/736/415
f 738/738/416 732/732/416 735/735/416
f 738/738/417 731/731/417 732/732/417
f 739/739/418 738/738/418 735/735/418
f 739/739/419 735/735/419 737/737/419
f 740/740/419 739/739/419 737/737/419
f 741/741/420 742/742/420 743/743/420
f 744/744/420 741/741/420 743/743/420
f 745/745/421 746/746/421 747/747/421
f 748/748/421 745/745/421 747/747/421
f 745/745/422 749/749/422 746/746/422
f 749/749/422 750/750/422 746/746/422
f 749/749/423 751/751/423 750/750/423
f 751/751/423 752/752/423 750/750/423
f 753/753/424 754/754/424 755/755/424
f 756/756/424 753/753/424 755/755/424
f 753/753/425 757/757/425 754/754/425
f 757/757/425 758/758/425 754/754/425
f 757/757/426 759/759/426 758/758/426
f 759/759/426 760/760/426 758/758/426
f 759/759/427 761/761/427 760/760/427
f 761/761/427 762/762/427 760/760/427
f 763/763/428 764/764/428 765/765/428
f 766/766/428 763/763/428 765/765/428
f 766/766/429 765/765/429 767/767/429
f 768/768/429 766/766/429 767/767/429
f 768/768/430 767/767/430 769/769/430
f 770/770/430 768/768/430 769/769/430
f 771/771/431 772/772/431 773/773/431
f 774/774/431 771/771/431 773/773/431
f 775/775/432 776/776/432 777/777/432
f 778/778/432 775/775/432 777/777/432
f 778/778/433 777/777/433 779/779/433
f 780/780/433 778/778/433 779/779/433
f 780/780/434 779/779/434 781/781/434
f 782/782/434 780/780/434 781/781/434
f 782/782/435 781/781/435 783/783/435
f 784/784/435 782/782/435 783/783/435
f 785/785/407 786/786/407 787/787/407
f 788/788/436 785/785/436 787/787/436
f 788/788/437 787/787/437 789/789/437
f 790/790/409 788/788/409 789/789/409
f 789/789/438 791/791/438 790/790/438
f 791/791/439 792/792/439 790/790/439
f 792/792/371 791/791/371 793/793/371
f 794/794/371 792/792/371 793/793/371
f 795/795/401 785/785/401 788/788/401
f 796/796/440 795/795/440 788/788/440
f 796/796/403 788/788/403 790/790/403
f 797/797/441 796/796/441 790/790/441
f 797/797/442 790/790/442 792/792/442
f 798/798/371 799/799/371 800/800/371
f 801/801/371 798/798/371 800/800/371
f 802/802/443 801/801/443 800/800/443
f 803/803/444 802/802/444 800/800/444
f 802/802/416 803/803/416 804/804/416
f 805/805/418 802/802/418 804/804/418
f 805/805/419 804/804/419 806/806/419
f 807/807/419 805/805/419 806/806/419
f 808/808/413 802/802/413 805/805/413
f 808/808/445 801/801/445 802/802/445
f 809/809/414 808/808/414 805/805/414
f 809/809/415 805/805/415 807/807/415
f 810/810/415 809/809/415 807/807/415
f 811/811/446 812/812/446 813/813/446
f 814/814/446 811/811/446 813/813/446
f 815/815/429 816/816/429 817/817/429
f 818/818/429 815/815/429 817/817/429
f 815/815/447 819/819/447 816/816/447
f 819/819/447 820/820/447 816/816/447
f 819/819/431 821/821/431 820/820/431
f 821/821/431 822/822/431 820/820/431
f 823/823/448 824/824/448 825/825/448
f 826/826/448 823/823/448 825/825/448
f 823/823/449 827/827/449 824/824/449
f 827/827/449 828/828/449 824/824/449
f 827/827/434 829/829/434 828/828/434
f 829/829/434 830/830/434 828/828/434
f 829/829/435 831/831/435 830/830/435
f 831/831/435 832/832/435 830/830/435
f 833/833/450 834/834/450 835/835/450
f 836/836/450 833/833/450 835/835/450
f 836/836/451 835/835/451 837/837/451
f 838/838/451 836/836/451 837/837/451
f 838/838/452 837/837/452 839/839/452
f 840/840/452 838/838/452 839/839/452
f 841/841/453 842/842/453 843/843/453
f 844/844/453 841/841/453 843/843/453
f 845/845/454 846/846/454 847/847/454
f 848/848/454 845/845/454 847/847/454
f 848/848/455 847/847/455 849/849/455
f 850/850/455 848/848/455 849/849/455
f 850/850/426 849/849/426 851/851/426
f 852/852/426 850/850/426 851/851/426
f 852/852/427 851/851/427 853/853/427
f 854/854/427 852/852/427 853/853/427
f 855/855/456 856/856/456 857/857/456
f 858/858/372 855/855/372 857/857/372
f 857/857/457 856/856/457 859/859/457
f 856/856/374 860/860/374 859/859/374
f 861/861/458 859/859/458 860/860/458
f 862/862/459 861/861/459 860/860/459
f 861/861/371 862/862/371 863/863/371
f 862/862/371 864/864/371 863/863/371
f 855/855/366 865/865/366 856/856/366
f 865/865/460 866/866/460 856/856/460
f 856/856/367 866/866/367 860/860/367
f 866/866/461 867/867/461 860/860/461
f 860/860/462 867/867/462 862/862/462
f 868/868/371 869/869/371 870/870/371
f 871/871/371 868/868/371 870/870/371
f 869/869/463 872/872/463 870/870/463
f 872/872/464 873/873/464 870/870/464
f 873/873/381 872/872/381 874/874/381
f 872/872/383 875/875/383 874/874/383
f 874/874/384 875/875/384 876/876/384
f 875/875/384 877/877/384 876/876/384
f 872/872/378 878/878/378 875/875/378
f 869/869/465 878/878/465 872/872/465
f 878/878/379 879/879/379 875/875/379
f 875/875/380 879/879/380 877/877/380
f 879/879/380 880/880/380 877/877/380
f 881/881/466 882/882/466 883/883/466
f 884/884/466 881/881/466 883/883/466
f 885/885/394 886/886/394 887/887/394
f 888/888/394 885/885/394 887/887/394
f 889/889/467 885/885/467 888/888/467
f 890/890/467 889/889/467 888/888/467
f 891/891/396 889/889/396 890/890/396
f 892/892/396 891/891/396 890/890/396
f 893/893/468 894/894/468 895/895/468
f 896/896/468 893/893/468 895/895/468
f 897/897/469 893/893/469 896/896/469
f 898/898/469 897/897/469 896/896/469
f 899/899/399 897/897/399 898/898/399
f 900/900/399 899/899/399 898/898/399
f 901/901/400 899/899/400 900/900/400
f 902/902/400 901/901/400 900/900/400
f 903/903/470 904/904/470 905/905/470
f 906/906/470 903/903/470 905/905/470
f 905/905/471 904/904/471 907/907/471
f 904/904/471 908/908/471 907/907/471
f 907/907/472 908/908/472 909/909/472
f 908/908/472 910/910/472 909/909/472
f 911/911/473 912/912/473 913/913/473
f 914/914/473 911/911/473 913/913/473
f 915/915/474 916/916/474 917/917/474
f 918/918/474 915/915/474 917/917/474
f 917/917/475 916/916/475 919/919/475
f 916/916/475 920/920/475 919/919/475
f 919/919/391 920/920/391 921/921/391
f 920/920/391 922/922/391 921/921/391
f 921/921/392 922/922/392 923/923/392
f 922/922/392 924/924/392 923/923/392
